SimulationSecond,ReceiveRate,PacketsReceived,NumberOfSinks,RoutingProtocol,TransmissionPower,WavePktsSent,WavePtksReceived,WavePktsPpr,ExpectedWavePktsReceived,ExpectedWavePktsInCoverageReceived,BSM_PDR1,BSM_PDR2,BSM_PDR3,BSM_PDR4,BSM_PDR5,BSM_PDR6,BSM_PDR7,BSM_PDR8,BSM_PDR9,BSM_PDR10,MacPhyOverhead
+0s,0,0,10,protocol,7.5,0,0,0,0,0,0,0,0,0,0,0,0,0,0,0,0
+1s,0,0,10,protocol,7.5,0,0,0,0,0,0,0,0,0,0,0,0,0,0,0,1
+2s,4.096,8,10,protocol,7.5,110,1633,14.8455,60,60,1,0.952381,0.673684,0.533333,0.345946,0.290909,0.237037,0.237037,0.237037,0.237037,0.749019
+3s,10.24,20,10,protocol,7.5,110,1511,13.7364,60,59,0.983333,0.93662,0.623684,0.487654,0.32027,0.269318,0.219444,0.219444,0.219444,0.219444,0.62073
+4s,10.24,20,10,protocol,7.5,120,1746,14.55,80,79,0.9875,0.975,0.718182,0.509677,0.330544,0.289113,0.243077,0.243077,0.243077,0.243077,0.564289
+5s,10.24,20,10,protocol,7.5,120,1648,13.7333,84,80,0.952381,0.9375,0.661137,0.45,0.296809,0.256906,0.214615,0.214615,0.214615,0.214615,0.544853
+6s,10.24,20,10,protocol,7.5,130,1818,13.9846,96,95,0.989583,0.92,0.678707,0.481781,0.327523,0.278906,0.23212,0.23212,0.23212,0.23212,0.503575
+7s,10.24,20,10,protocol,7.5,130,1705,13.1154,80,80,1,0.914141,0.678862,0.465181,0.301989,0.260937,0.222667,0.222667,0.222667,0.222667,0.472834
+8s,10.24,20,10,protocol,7.5,130,1593,12.2538,80,79,0.9875,0.883838,0.630165,0.448529,0.274281,0.24168,0.204424,0.204424,0.204424,0.204424,0.448969
+9s,9.728,19,10,protocol,7.5,130,1598,12.2923,67,67,1,0.965909,0.637712,0.446588,0.287214,0.245114,0.203378,0.203378,0.203378,0.203378,0.447817
+10s,6.656,13,10,protocol,7.5,130,1422,10.9385,40,40,1,0.9375,0.625,0.424886,0.280561,0.232945,0.189189,0.189189,0.189189,0.189189,0.444263
+11s,6.144,12,10,protocol,7.5,140,1417,10.1214,60,54,0.9,0.846154,0.510998,0.375622,0.247541,0.211781,0.177543,0.177543,0.177543,0.177543,0.438076
+12s,6.144,12,10,protocol,7.5,140,1434,10.2429,68,66,0.970588,0.857895,0.515101,0.380893,0.25226,0.215288,0.182738,0.182738,0.182738,0.182738,0.43303
+13s,6.144,12,10,protocol,7.5,170,1677,9.86471,136,133,0.977941,0.848765,0.501131,0.360163,0.248876,0.204903,0.172642,0.172642,0.172642,0.172642,0.426292
+14s,11.776,23,10,protocol,7.5,170,1506,8.85882,102,97,0.95098,0.78882,0.452656,0.314859,0.220225,0.181734,0.151468,0.151468,0.151468,0.151468,0.427136
+15s,10.24,20,10,protocol,7.5,170,1556,9.15294,80,79,0.9875,0.85061,0.483796,0.322034,0.234831,0.188799,0.160769,0.160769,0.160769,0.160769,0.427602
+16s,8.704,17,10,protocol,7.5,190,1690,8.89474,114,106,0.929825,0.727273,0.418343,0.292793,0.207751,0.17669,0.158055,0.158055,0.158055,0.158055,0.467493
+17s,10.24,20,10,protocol,7.5,190,1573,8.27895,114,112,0.982456,0.768061,0.462932,0.316798,0.21936,0.189353,0.169379,0.169379,0.169379,0.169379,0.462476
+18s,8.192,16,10,protocol,7.5,190,1674,8.81053,122,118,0.967213,0.776596,0.495968,0.338098,0.237635,0.208192,0.184685,0.184685,0.184685,0.184685,0.458557
+19s,6.656,13,10,protocol,7.5,190,1549,8.15263,168,157,0.934524,0.784965,0.492089,0.350028,0.241085,0.21316,0.184187,0.184187,0.184187,0.184187,0.473201
+20s,6.144,12,10,protocol,7.5,190,1563,8.22632,194,184,0.948454,0.809259,0.531056,0.394464,0.265322,0.237171,0.202367,0.202367,0.202367,0.202367,0.475286
+21s,5.12,10,10,protocol,7.5,200,1561,7.805,248,243,0.979839,0.809375,0.498246,0.387343,0.26238,0.223411,0.188529,0.188529,0.188529,0.188529,0.479248
+22s,4.096,8,10,protocol,7.5,200,1513,7.565,272,267,0.981618,0.809148,0.49439,0.383361,0.266641,0.221768,0.186508,0.186508,0.186508,0.186508,0.477313
+23s,4.096,8,10,protocol,7.5,200,1602,8.01,250,243,0.972,0.808801,0.523466,0.386461,0.281008,0.22628,0.191091,0.191091,0.191091,0.191091,0.475729
+24s,4.608,9,10,protocol,7.5,210,1571,7.48095,296,288,0.972973,0.774282,0.508648,0.364387,0.26716,0.219701,0.189952,0.189952,0.189952,0.189952,0.477521
+25s,4.096,8,10,protocol,7.5,240,2044,8.51667,312,304,0.974359,0.797895,0.506546,0.350523,0.251626,0.208109,0.183176,0.183176,0.183176,0.183176,0.476335
+26s,4.096,8,10,protocol,7.5,240,1890,7.875,316,306,0.968354,0.768145,0.481683,0.334479,0.241799,0.199795,0.176524,0.176524,0.176524,0.176524,0.477243
+27s,5.632,11,10,protocol,7.5,250,2139,8.556,309,298,0.964401,0.756481,0.495212,0.353516,0.251505,0.205838,0.181,0.181,0.181,0.181,0.473701
+28s,6.144,12,10,protocol,7.5,250,2222,8.888,314,301,0.958599,0.800957,0.527076,0.374599,0.264613,0.220336,0.194927,0.194927,0.194927,0.194927,0.470117
+29s,10.752,21,10,protocol,7.5,250,2200,8.8,302,288,0.953642,0.742938,0.479003,0.34326,0.243009,0.207386,0.18311,0.18311,0.18311,0.18311,0.468573
+30s,10.24,20,10,protocol,7.5,250,2202,8.808,251,242,0.964143,0.747992,0.468213,0.329305,0.234409,0.20566,0.182274,0.182274,0.182274,0.182274,0.46803
+31s,13.824,27,10,protocol,7.5,270,2199,8.14444,285,263,0.922807,0.703527,0.393473,0.271028,0.195731,0.172397,0.154034,0.154034,0.154034,0.154034,0.483682
+32s,13.824,27,10,protocol,7.5,270,2157,7.98889,288,263,0.913194,0.692379,0.39274,0.26624,0.195448,0.173592,0.155549,0.155549,0.155549,0.155549,0.482341
+33s,10.752,21,10,protocol,7.5,270,2170,8.03704,298,284,0.95302,0.707734,0.399132,0.264115,0.200363,0.175908,0.158849,0.158849,0.158849,0.158849,0.480168
+34s,10.752,21,10,protocol,7.5,270,2130,7.88889,336,310,0.922619,0.714674,0.411466,0.265698,0.205435,0.179886,0.163401,0.163401,0.163401,0.163401,0.481983
+35s,10.752,21,10,protocol,7.5,270,1955,7.24074,344,315,0.915698,0.648649,0.357041,0.231036,0.180423,0.158145,0.144197,0.144197,0.144197,0.144197,0.481822
+36s,12.288,24,10,protocol,7.5,270,1895,7.01852,343,305,0.889213,0.62594,0.335841,0.224971,0.17542,0.155159,0.142525,0.142525,0.142525,0.142525,0.481662
+37s,10.752,21,10,protocol,7.5,300,2262,7.54,452,407,0.900442,0.634058,0.340361,0.241547,0.179055,0.158505,0.145176,0.145176,0.145176,0.145176,0.479635
+38s,10.24,20,10,protocol,7.5,300,2254,7.51333,432,397,0.918981,0.597333,0.334673,0.242007,0.17848,0.158523,0.145368,0.145368,0.145368,0.145368,0.47758
+39s,10.24,20,10,protocol,7.5,300,2371,7.90333,447,415,0.928412,0.62062,0.345933,0.253341,0.187615,0.167529,0.154266,0.154266,0.154266,0.154266,0.476243
+40s,10.24,20,10,protocol,7.5,300,2445,8.15,514,445,0.865759,0.64077,0.354897,0.26045,0.195708,0.172946,0.160116,0.160116,0.160116,0.160116,0.475693
+41s,9.216,18,10,protocol,7.5,300,2189,7.29667,558,497,0.890681,0.604891,0.320555,0.238283,0.179216,0.158835,0.148101,0.148101,0.148101,0.148101,0.474131
+42s,7.68,15,10,protocol,7.5,300,2317,7.72333,613,566,0.923328,0.673325,0.351731,0.258338,0.196139,0.174378,0.163518,0.163518,0.163518,0.163518,0.47324
+43s,7.68,15,10,protocol,7.5,300,2374,7.91333,628,522,0.83121,0.656604,0.36274,0.263399,0.199361,0.177511,0.167249,0.167249,0.167249,0.167249,0.47277
+44s,6.144,12,10,protocol,7.5,300,2617,8.72333,593,543,0.915683,0.688312,0.405486,0.300944,0.22527,0.20079,0.18951,0.18951,0.18951,0.18951,0.472271
+45s,6.144,12,10,protocol,7.5,310,2247,7.24839,574,492,0.857143,0.605469,0.365399,0.263818,0.194661,0.170565,0.15938,0.15938,0.15938,0.15938,0.472013
+46s,12.288,24,10,protocol,7.5,310,2496,8.05161,540,514,0.951852,0.678449,0.430402,0.302795,0.227199,0.196328,0.18402,0.18402,0.18402,0.18402,0.47935
+47s,14.848,29,10,protocol,7.5,310,2044,6.59355,526,491,0.93346,0.582264,0.350633,0.242717,0.184913,0.159991,0.149395,0.149395,0.149395,0.149395,0.477038
+48s,18.944,37,10,protocol,7.5,310,2163,6.97742,586,530,0.904437,0.609948,0.387666,0.269861,0.204509,0.178867,0.166191,0.166191,0.166191,0.166191,0.475004
+49s,15.36,30,10,protocol,7.5,340,2489,7.32059,722,653,0.904432,0.620304,0.365273,0.254937,0.191332,0.16719,0.154572,0.154572,0.154572,0.154572,0.473823
+50s,14.336,28,10,protocol,7.5,340,2452,7.21176,776,717,0.923969,0.618575,0.37257,0.251348,0.190776,0.167671,0.15642,0.15642,0.15642,0.15642,0.473146
+51s,14.848,29,10,protocol,7.5,350,2502,7.14857,936,827,0.883547,0.599442,0.368265,0.251148,0.190354,0.168847,0.158321,0.158321,0.158321,0.158321,0.471037
+52s,17.92,35,10,protocol,7.5,350,2774,7.92571,906,827,0.912804,0.656046,0.39373,0.272897,0.206789,0.184998,0.174094,0.174094,0.174094,0.174094,0.468384
+53s,18.432,36,10,protocol,7.5,350,2751,7.86,1090,984,0.902752,0.649533,0.374654,0.26773,0.202331,0.182152,0.172323,0.172323,0.172323,0.172323,0.465547
+54s,18.432,36,10,protocol,7.5,350,2897,8.27714,1122,1019,0.9082,0.646332,0.387523,0.281714,0.209584,0.191956,0.181303,0.181303,0.181303,0.181303,0.462928
+55s,15.36,30,10,protocol,7.5,350,2640,7.54286,1049,933,0.889418,0.611362,0.361061,0.266191,0.197335,0.18024,0.170274,0.170274,0.170274,0.170274,0.461321
+56s,11.264,22,10,protocol,7.5,350,2868,8.19429,1009,930,0.921705,0.63609,0.379816,0.286495,0.210192,0.192563,0.181657,0.181657,0.181657,0.181657,0.460242
+57s,8.192,16,10,protocol,7.5,350,2516,7.18857,938,843,0.898721,0.563364,0.328395,0.246492,0.181428,0.165688,0.15753,0.15753,0.15753,0.15753,0.459531
+58s,8.192,16,10,protocol,7.5,350,2359,6.74,864,789,0.913194,0.548795,0.319187,0.237905,0.174839,0.158913,0.151336,0.151336,0.151336,0.151336,0.458379
+59s,8.192,16,10,protocol,7.5,350,2548,7.28,825,747,0.905455,0.5759,0.347794,0.248859,0.186766,0.170266,0.161668,0.161668,0.161668,0.161668,0.457444
+60s,8.192,16,10,protocol,7.5,350,2577,7.36286,860,775,0.901163,0.593483,0.346105,0.244422,0.188321,0.169724,0.161882,0.161882,0.161882,0.161882,0.456339
+61s,13.824,27,10,protocol,7.5,380,2550,6.71053,1019,872,0.855741,0.563277,0.307875,0.21798,0.164902,0.147948,0.13939,0.13939,0.13939,0.13939,0.460433
+62s,14.336,28,10,protocol,7.5,380,2575,6.77632,1001,876,0.875125,0.575569,0.310666,0.218608,0.167063,0.148514,0.140643,0.140643,0.140643,0.140643,0.457555
+63s,13.824,27,10,protocol,7.5,380,2521,6.63421,968,879,0.908058,0.572694,0.293685,0.21099,0.162497,0.144495,0.136935,0.136935,0.136935,0.136935,0.45591
+64s,11.776,23,10,protocol,7.5,380,2409,6.33947,967,876,0.905895,0.549553,0.280678,0.203474,0.155216,0.138604,0.131263,0.131263,0.131263,0.131263,0.454752
+65s,11.264,22,10,protocol,7.5,380,2458,6.46842,986,879,0.891481,0.576405,0.28399,0.209437,0.158364,0.142199,0.134237,0.134237,0.134237,0.134237,0.453858
+66s,12.288,24,10,protocol,7.5,380,2392,6.29474,944,876,0.927966,0.583667,0.282337,0.209333,0.15693,0.142521,0.133795,0.133795,0.133795,0.133795,0.453227
+67s,12.288,24,10,protocol,7.5,380,2336,6.14737,890,792,0.889888,0.550157,0.282507,0.203733,0.153768,0.138405,0.129373,0.129373,0.129373,0.129373,0.452005
+68s,14.848,29,10,protocol,7.5,380,2351,6.18684,844,769,0.911137,0.583942,0.298908,0.21381,0.159825,0.143242,0.133348,0.133348,0.133348,0.133348,0.45071
+69s,12.288,24,10,protocol,7.5,380,2312,6.08421,818,735,0.898533,0.5703,0.299155,0.211228,0.159077,0.140742,0.129667,0.129667,0.129667,0.129667,0.449837
+70s,11.776,23,10,protocol,7.5,380,2146,5.64737,804,759,0.94403,0.543588,0.284727,0.203641,0.152934,0.132793,0.121406,0.121406,0.121406,0.121406,0.449369
+71s,11.776,23,10,protocol,7.5,380,2063,5.42895,809,764,0.944376,0.539992,0.277185,0.198938,0.147893,0.127271,0.116452,0.116452,0.116452,0.116452,0.448982
+72s,12.288,24,10,protocol,7.5,380,2153,5.66579,770,717,0.931169,0.554054,0.28939,0.206593,0.152602,0.130805,0.118977,0.118977,0.118977,0.118977,0.448229
+73s,12.288,24,10,protocol,7.5,410,2137,5.2122,791,722,0.912769,0.540355,0.269973,0.194043,0.138308,0.118768,0.107178,0.107178,0.107178,0.107178,0.44711
+74s,12.288,24,10,protocol,7.5,410,2106,5.13659,766,704,0.91906,0.548591,0.264902,0.190297,0.134736,0.115985,0.104621,0.104621,0.104621,0.104621,0.445952
+75s,12.288,24,10,protocol,7.5,410,2301,5.6122,748,689,0.921123,0.57947,0.296931,0.209961,0.148862,0.127515,0.114846,0.114846,0.114846,0.114846,0.444559
+76s,11.776,23,10,protocol,7.5,410,2269,5.53415,750,685,0.913333,0.569079,0.288278,0.200879,0.144011,0.124329,0.111104,0.111104,0.111104,0.111104,0.44732
+77s,17.92,35,10,protocol,7.5,410,2240,5.46341,744,673,0.90457,0.571195,0.289482,0.199729,0.144599,0.123515,0.110286,0.110286,0.110286,0.110286,0.445647
+78s,18.432,36,10,protocol,7.5,410,2296,5.6,784,713,0.909439,0.580218,0.30335,0.204148,0.149669,0.126963,0.11306,0.11306,0.11306,0.11306,0.444657
+79s,15.36,30,10,protocol,7.5,410,2331,5.68537,812,725,0.892857,0.574722,0.315844,0.209176,0.152749,0.129336,0.114996,0.114996,0.114996,0.114996,0.444148
+80s,14.336,28,10,protocol,7.5,410,2291,5.5878,856,794,0.92757,0.605777,0.318719,0.214896,0.154517,0.131622,0.11632,0.11632,0.11632,0.11632,0.44336
+81s,14.336,28,10,protocol,7.5,410,2216,5.40488,904,850,0.940265,0.603272,0.30481,0.211277,0.151523,0.128733,0.113243,0.113243,0.113243,0.113243,0.442845
+82s,14.336,28,10,protocol,7.5,410,2348,5.72683,900,874,0.971111,0.625996,0.321866,0.229942,0.163159,0.139219,0.122328,0.122328,0.122328,0.122328,0.442337
+83s,14.336,28,10,protocol,7.5,410,2301,5.6122,918,887,0.966231,0.605999,0.32277,0.23176,0.161901,0.13837,0.121758,0.121758,0.121758,0.121758,0.441508
+84s,14.336,28,10,protocol,7.5,410,2163,5.27561,951,890,0.935857,0.575479,0.303127,0.218837,0.150841,0.130331,0.11436,0.11436,0.11436,0.11436,0.440793
+85s,12.8,25,10,protocol,7.5,440,2310,5.25,1047,972,0.928367,0.549863,0.293525,0.216716,0.145651,0.123635,0.108169,0.108169,0.108169,0.108169,0.440203
+86s,12.288,24,10,protocol,7.5,440,2384,5.41818,1068,1014,0.949438,0.557961,0.298453,0.22267,0.152079,0.127019,0.111286,0.111286,0.111286,0.111286,0.439642
+87s,11.264,22,10,protocol,7.5,440,2350,5.34091,1024,988,0.964844,0.576923,0.299487,0.220973,0.152891,0.12672,0.111184,0.111184,0.111184,0.111184,0.438894
+88s,10.24,20,10,protocol,7.5,440,2489,5.65682,1048,946,0.902672,0.59889,0.312518,0.228037,0.161913,0.133693,0.117165,0.117165,0.117165,0.117165,0.438241
+89s,10.24,20,10,protocol,7.5,440,2382,5.41364,1100,1012,0.92,0.582925,0.302609,0.217613,0.154988,0.129304,0.113024,0.113024,0.113024,0.113024,0.437371
+90s,10.24,20,10,protocol,7.5,440,2529,5.74773,1042,961,0.922265,0.613924,0.31621,0.228713,0.162,0.138344,0.120082,0.120082,0.120082,0.120082,0.436499
+91s,10.752,21,10,protocol,7.5,440,2243,5.09773,1070,963,0.9,0.550388,0.271612,0.19833,0.141364,0.120979,0.105468,0.105468,0.105468,0.105468,0.438804
+92s,15.36,30,10,protocol,7.5,440,2315,5.26136,1075,962,0.894884,0.580136,0.277366,0.203032,0.145238,0.124692,0.109808,0.109808,0.109808,0.109808,0.437654
+93s,14.336,28,10,protocol,7.5,440,2263,5.14318,1068,969,0.907303,0.555748,0.268758,0.199782,0.144384,0.123338,0.109319,0.109319,0.109319,0.109319,0.436624
+94s,13.824,27,10,protocol,7.5,440,2365,5.375,1120,1042,0.930357,0.569925,0.280229,0.202945,0.149734,0.12795,0.114297,0.114297,0.114297,0.114297,0.435704
+95s,12.288,24,10,protocol,7.5,440,2287,5.19773,1108,1014,0.915162,0.540823,0.269134,0.193481,0.142988,0.12271,0.11052,0.11052,0.11052,0.11052,0.435102
+96s,12.288,24,10,protocol,7.5,440,2300,5.22727,1083,991,0.915051,0.529393,0.267088,0.191016,0.142601,0.123856,0.112493,0.112493,0.112493,0.112493,0.434373
+97s,11.776,23,10,protocol,7.5,470,2292,4.8766,1264,1141,0.90269,0.489835,0.243966,0.176751,0.128599,0.111856,0.102048,0.102048,0.102048,0.102048,0.433558
+98s,10.24,20,10,protocol,7.5,470,2397,5.1,1280,1106,0.864062,0.488428,0.248229,0.182961,0.131226,0.115543,0.106105,0.106105,0.106105,0.106105,0.432594
+99s,10.24,20,10,protocol,7.5,470,2388,5.08085,1282,1112,0.867395,0.479568,0.242405,0.180646,0.129573,0.114868,0.105955,0.105955,0.105955,0.105955,0.431603
+100s,9.728,19,10,protocol,7.5,470,2480,5.2766,1395,1206,0.864516,0.494534,0.245444,0.183754,0.133143,0.118938,0.109916,0.109916,0.109916,0.109916,0.43089
+101s,8.704,17,10,protocol,7.5,470,2491,5.3,1460,1218,0.834247,0.486903,0.244196,0.180868,0.132055,0.119193,0.109831,0.109831,0.109831,0.109831,0.430118
+102s,8.192,16,10,protocol,7.5,470,2636,5.60851,1464,1240,0.846995,0.517349,0.262958,0.191881,0.139999,0.126885,0.117235,0.117235,0.117235,0.117235,0.429401
+103s,8.192,16,10,protocol,7.5,470,2381,5.06596,1441,1110,0.770298,0.46511,0.233243,0.170665,0.125576,0.113713,0.105258,0.105258,0.105258,0.105258,0.428416
+104s,9.728,19,10,protocol,7.5,470,2642,5.62128,1382,1173,0.84877,0.50747,0.256256,0.189856,0.140309,0.126248,0.116733,0.116733,0.116733,0.116733,0.427479
+105s,8.704,17,10,protocol,7.5,470,2360,5.02128,1439,1251,0.869354,0.478417,0.230284,0.171688,0.127133,0.113976,0.105218,0.105218,0.105218,0.105218,0.426663
+106s,10.24,20,10,protocol,7.5,470,2230,4.74468,1416,1236,0.872881,0.460247,0.219846,0.166523,0.121836,0.10851,0.100384,0.100384,0.100384,0.100384,0.429031
+107s,14.848,29,10,protocol,7.5,470,2390,5.08511,1376,1252,0.909884,0.483732,0.238365,0.180304,0.131422,0.117495,0.107946,0.107946,0.107946,0.107946,0.42784
+108s,16.384,32,10,protocol,7.5,470,2444,5.2,1350,1198,0.887407,0.488283,0.246706,0.184344,0.133933,0.12018,0.110561,0.110561,0.110561,0.110561,0.426825
+109s,14.848,29,10,protocol,7.5,490,2236,4.56327,1420,1249,0.879577,0.439077,0.220123,0.166186,0.117717,0.104815,0.0958718,0.0958718,0.0958718,0.0958718,0.426074
+110s,11.776,23,10,protocol,7.5,490,2298,4.6898,1368,1162,0.849415,0.454019,0.22996,0.169668,0.121108,0.107762,0.0983965,0.0983965,0.0983965,0.0983965,0.425672
+111s,12.288,24,10,protocol,7.5,500,2259,4.518,1316,1160,0.881459,0.438956,0.222124,0.162565,0.117253,0.104217,0.0946059,0.0946059,0.0946059,0.0946059,0.42521
+112s,9.216,18,10,protocol,7.5,500,2317,4.634,1382,1217,0.880608,0.460366,0.228591,0.166499,0.120339,0.106912,0.0969051,0.0969051,0.0969051,0.0969051,0.424892
+113s,9.216,18,10,protocol,7.5,500,2476,4.952,1422,1201,0.844585,0.475398,0.246074,0.177822,0.12859,0.114186,0.103391,0.103391,0.103391,0.103391,0.42467
+114s,8.704,17,10,protocol,7.5,500,2627,5.254,1465,1273,0.868942,0.50738,0.264206,0.188803,0.136199,0.121127,0.109618,0.109618,0.109618,0.109618,0.424158
+115s,12.288,24,10,protocol,7.5,500,2441,4.882,1588,1383,0.870907,0.496059,0.243031,0.177411,0.12666,0.112811,0.101759,0.101759,0.101759,0.101759,0.423619
+116s,12.288,24,10,protocol,7.5,500,2516,5.032,1547,1399,0.904331,0.511779,0.251098,0.184593,0.131404,0.116568,0.105105,0.105105,0.105105,0.105105,0.423143
+117s,10.752,21,10,protocol,7.5,500,2469,4.938,1514,1339,0.884412,0.485535,0.24844,0.180245,0.129811,0.115008,0.103457,0.103457,0.103457,0.103457,0.422691
+118s,8.704,17,10,protocol,7.5,500,2407,4.814,1440,1310,0.909722,0.482972,0.244019,0.175886,0.127767,0.112157,0.100948,0.100948,0.100948,0.100948,0.422264
+119s,8.192,16,10,protocol,7.5,500,2506,5.012,1457,1354,0.929307,0.496427,0.256132,0.183927,0.133539,0.116569,0.105117,0.105117,0.105117,0.105117,0.421844
+120s,8.192,16,10,protocol,7.5,500,2388,4.776,1510,1373,0.909272,0.49087,0.241432,0.177454,0.127394,0.110566,0.100273,0.100273,0.100273,0.100273,0.421358
+121s,12.288,24,10,protocol,7.5,500,2234,4.468,1514,1289,0.851387,0.459367,0.226595,0.167756,0.119427,0.103618,0.0939998,0.0939998,0.0939998,0.0939998,0.423413
+122s,12.288,24,10,protocol,7.5,500,2390,4.78,1490,1314,0.881879,0.505606,0.244727,0.180282,0.128315,0.110956,0.100886,0.100886,0.100886,0.100886,0.4226
+123s,9.728,19,10,protocol,7.5,500,2313,4.626,1438,1299,0.903338,0.521579,0.237328,0.176632,0.125108,0.107913,0.097731,0.097731,0.097731,0.097731,0.421966
+124s,14.336,28,10,protocol,7.5,500,2232,4.464,1369,1200,0.876552,0.482963,0.22963,0.170447,0.120688,0.104402,0.0940899,0.0940899,0.0940899,0.0940899,0.422235
+125s,14.336,28,10,protocol,7.5,500,2330,4.66,1378,1226,0.889695,0.498979,0.242204,0.178407,0.125356,0.108945,0.0978498,0.0978498,0.0978498,0.0978498,0.422544
+126s,12.8,25,10,protocol,7.5,500,2291,4.582,1411,1262,0.894401,0.483308,0.23882,0.174872,0.123066,0.107508,0.0961716,0.0961716,0.0961716,0.0961716,0.422276
+127s,10.24,20,10,protocol,7.5,500,2290,4.58,1403,1202,0.856736,0.485744,0.239065,0.175331,0.123297,0.108438,0.0961781,0.0961781,0.0961781,0.0961781,0.42195
+128s,10.24,20,10,protocol,7.5,500,2201,4.402,1238,1115,0.900646,0.475278,0.228485,0.166364,0.118999,0.10471,0.0923858,0.0923858,0.0923858,0.0923858,0.421373
+129s,10.24,20,10,protocol,7.5,500,2314,4.628,1349,1178,0.873239,0.497256,0.241293,0.174168,0.124946,0.110559,0.0972759,0.0972759,0.0972759,0.0972759,0.420748
+130s,11.776,23,10,protocol,7.5,500,2338,4.676,1477,1321,0.894381,0.512455,0.245743,0.178201,0.125053,0.111759,0.0985085,0.0985085,0.0985085,0.0985085,0.420116
+131s,12.288,24,10,protocol,7.5,500,2186,4.372,1438,1258,0.874826,0.474404,0.226834,0.166147,0.116128,0.104219,0.0920111,0.0920111,0.0920111,0.0920111,0.419489
+132s,12.288,24,10,protocol,7.5,500,2409,4.818,1434,1308,0.912134,0.502727,0.246874,0.181674,0.128364,0.114534,0.101312,0.101312,0.101312,0.101312,0.418785
+133s,12.288,24,10,protocol,7.5,500,2252,4.504,1424,1303,0.915028,0.481619,0.228606,0.169591,0.119991,0.106478,0.0943641,0.0943641,0.0943641,0.0943641,0.418147
+134s,12.288,24,10,protocol,7.5,500,2387,4.774,1453,1323,0.91053,0.493124,0.239514,0.179866,0.127777,0.112266,0.0997076,0.0997076,0.0997076,0.0997076,0.417505
+135s,12.288,24,10,protocol,7.5,500,2376,4.752,1562,1385,0.886684,0.5,0.236253,0.177804,0.126788,0.1108,0.0991984,0.0991984,0.0991984,0.0991984,0.416867
+136s,15.872,31,10,protocol,7.5,500,2602,5.204,1685,1470,0.872404,0.529197,0.259138,0.192129,0.137439,0.120452,0.108602,0.108602,0.108602,0.108602,0.418586
+137s,15.872,31,10,protocol,7.5,500,2904,5.808,1913,1723,0.90068,0.576942,0.285433,0.212747,0.153116,0.13406,0.121091,0.121091,0.121091,0.121091,0.417952
+138s,14.336,28,10,protocol,7.5,500,2779,5.558,1858,1659,0.892896,0.548148,0.272558,0.203025,0.146525,0.128206,0.115715,0.115715,0.115715,0.115715,0.417314
+139s,13.824,27,10,protocol,7.5,500,2779,5.558,1958,1772,0.905005,0.54491,0.269623,0.204594,0.146286,0.127249,0.115763,0.115763,0.115763,0.115763,0.41686
+140s,13.824,27,10,protocol,7.5,500,2722,5.444,1916,1735,0.905532,0.531076,0.259733,0.198875,0.142857,0.124577,0.113398,0.113398,0.113398,0.113398,0.416447
+141s,12.8,25,10,protocol,7.5,500,2764,5.528,1978,1808,0.914055,0.526872,0.25839,0.200989,0.144955,0.126557,0.1151,0.1151,0.1151,0.1151,0.416189
+142s,12.288,24,10,protocol,7.5,500,2801,5.602,1969,1805,0.916709,0.535691,0.259785,0.201612,0.146266,0.128569,0.116738,0.116738,0.116738,0.116738,0.415696
+143s,12.288,24,10,protocol,7.5,500,2764,5.528,1979,1780,0.899444,0.540984,0.254091,0.196768,0.143175,0.127104,0.115359,0.115359,0.115359,0.115359,0.415151
+144s,12.8,25,10,protocol,7.5,500,2890,5.78,2042,1847,0.904505,0.571066,0.261586,0.203064,0.1488,0.13321,0.120497,0.120497,0.120497,0.120497,0.4146
+145s,14.336,28,10,protocol,7.5,500,2804,5.608,2089,1894,0.906654,0.558728,0.251525,0.195742,0.142908,0.129539,0.116853,0.116853,0.116853,0.116853,0.41423
+146s,14.848,29,10,protocol,7.5,500,2751,5.502,2082,1861,0.893852,0.533124,0.245012,0.189254,0.139376,0.126669,0.114721,0.114721,0.114721,0.114721,0.413949
+147s,13.824,27,10,protocol,7.5,500,2830,5.66,2092,1865,0.891491,0.532422,0.254085,0.191631,0.14234,0.130103,0.117966,0.117966,0.117966,0.117966,0.413667
+148s,12.288,24,10,protocol,7.5,500,2903,5.806,2188,1976,0.903108,0.553773,0.256994,0.194832,0.14635,0.133214,0.120858,0.120858,0.120858,0.120858,0.413283
+149s,12.288,24,10,protocol,7.5,500,2747,5.494,2203,1914,0.868815,0.51788,0.244613,0.181308,0.138311,0.12638,0.114273,0.114273,0.114273,0.114273,0.412838
+150s,12.288,24,10,protocol,7.5,500,2893,5.786,2218,1964,0.885482,0.531683,0.252509,0.189817,0.144904,0.133134,0.120341,0.120341,0.120341,0.120341,0.412378
+151s,14.336,28,10,protocol,7.5,500,2854,5.708,2330,2044,0.877253,0.531897,0.245358,0.190064,0.143338,0.13069,0.118927,0.118927,0.118927,0.118927,0.413879
+152s,16.896,33,10,protocol,7.5,500,2815,5.63,2320,2033,0.876293,0.533277,0.240804,0.186227,0.141223,0.128451,0.117389,0.117389,0.117389,0.117389,0.413423
+153s,16.896,33,10,protocol,7.5,500,3086,6.172,2272,2056,0.90493,0.559807,0.260071,0.20312,0.155294,0.140836,0.128691,0.128691,0.128691,0.128691,0.413079
+154s,16.384,32,10,protocol,7.5,500,2972,5.944,2291,2033,0.887385,0.558046,0.251183,0.195836,0.149768,0.135714,0.123854,0.123854,0.123854,0.123854,0.412776
+155s,16.384,32,10,protocol,7.5,500,3002,6.004,2388,2075,0.868928,0.540825,0.253077,0.201829,0.152077,0.136591,0.125135,0.125135,0.125135,0.125135,0.412652
+156s,15.36,30,10,protocol,7.5,500,3063,6.126,2362,2108,0.892464,0.535455,0.257525,0.209021,0.154775,0.139379,0.127731,0.127731,0.127731,0.127731,0.412579
+157s,14.336,28,10,protocol,7.5,500,3062,6.124,2388,2067,0.865578,0.535366,0.255252,0.208768,0.154873,0.140022,0.127615,0.127615,0.127615,0.127615,0.412452
+158s,12.288,24,10,protocol,7.5,500,3165,6.33,2494,2175,0.872093,0.562145,0.264477,0.215335,0.16148,0.14535,0.131787,0.131787,0.131787,0.131787,0.412226
+159s,12.288,24,10,protocol,7.5,500,3165,6.33,2514,2214,0.880668,0.554576,0.263245,0.214591,0.162241,0.145799,0.131908,0.131908,0.131908,0.131908,0.41186
+160s,12.8,25,10,protocol,7.5,500,3154,6.308,2542,2229,0.876869,0.5456,0.261656,0.212105,0.163352,0.145225,0.131658,0.131658,0.131658,0.131658,0.411427
+161s,14.336,28,10,protocol,7.5,500,3160,6.32,2606,2231,0.856101,0.533678,0.259868,0.212451,0.164088,0.14579,0.131886,0.131886,0.131886,0.131886,0.410909
+162s,14.336,28,10,protocol,7.5,500,3203,6.406,2574,2337,0.907925,0.536058,0.262369,0.212344,0.166459,0.147938,0.133871,0.133871,0.133871,0.133871,0.410427
+163s,14.336,28,10,protocol,7.5,500,3123,6.246,2606,2232,0.856485,0.513838,0.254856,0.20468,0.161646,0.145229,0.130691,0.130691,0.130691,0.130691,0.409925
+164s,14.336,28,10,protocol,7.5,500,3243,6.486,2568,2218,0.863707,0.524773,0.263594,0.210968,0.16653,0.151663,0.135702,0.135702,0.135702,0.135702,0.409407
+165s,13.312,26,10,protocol,7.5,500,3265,6.53,2603,2289,0.87937,0.533718,0.264351,0.212634,0.166361,0.152606,0.136932,0.136932,0.136932,0.136932,0.408807
+166s,10.24,20,10,protocol,7.5,500,3237,6.474,2755,2284,0.829038,0.508911,0.260335,0.210154,0.163749,0.151844,0.135746,0.135746,0.135746,0.135746,0.410165
+167s,13.312,26,10,protocol,7.5,500,3350,6.7,2737,2395,0.875046,0.53697,0.268968,0.21874,0.1695,0.156754,0.14032,0.14032,0.14032,0.14032,0.409911
+168s,12.288,24,10,protocol,7.5,500,3374,6.748,2688,2415,0.898438,0.546737,0.271768,0.21949,0.171356,0.157458,0.141361,0.141361,0.141361,0.141361,0.409561
+169s,12.288,24,10,protocol,7.5,500,3667,7.334,2760,2412,0.873913,0.560648,0.294349,0.238086,0.185708,0.170749,0.153534,0.153534,0.153534,0.153534,0.409275
+170s,12.288,24,10,protocol,7.5,500,3601,7.202,2930,2487,0.848805,0.547508,0.285794,0.233558,0.182274,0.167488,0.150796,0.150796,0.150796,0.150796,0.409064
+171s,12.8,25,10,protocol,7.5,500,3559,7.118,3044,2611,0.857753,0.547934,0.283405,0.229999,0.180203,0.165643,0.148912,0.148912,0.148912,0.148912,0.408893
+172s,14.336,28,10,protocol,7.5,500,3651,7.302,3026,2643,0.87343,0.565695,0.287979,0.236602,0.185236,0.171071,0.152723,0.152723,0.152723,0.152723,0.408727
+173s,14.336,28,10,protocol,7.5,500,3785,7.57,3100,2729,0.880323,0.570284,0.294346,0.243973,0.191782,0.176473,0.158236,0.158236,0.158236,0.158236,0.408438
+174s,14.336,28,10,protocol,7.5,500,3726,7.452,3186,2818,0.884495,0.560046,0.283821,0.238266,0.188869,0.173173,0.155834,0.155834,0.155834,0.155834,0.408187
+175s,14.336,28,10,protocol,7.5,500,3768,7.536,3266,2823,0.86436,0.554105,0.283138,0.239284,0.190959,0.175223,0.157696,0.157696,0.157696,0.157696,0.40784
+176s,13.312,26,10,protocol,7.5,500,3944,7.888,3386,2820,0.832841,0.556694,0.292538,0.248206,0.199535,0.183578,0.165062,0.165062,0.165062,0.165062,0.407471
+177s,12.288,24,10,protocol,7.5,500,3830,7.66,3406,2777,0.815326,0.553358,0.282824,0.238555,0.19365,0.177991,0.160278,0.160278,0.160278,0.160278,0.407042
+178s,12.288,24,10,protocol,7.5,500,3981,7.962,3694,3103,0.840011,0.56168,0.289991,0.247313,0.200615,0.184956,0.166569,0.166569,0.166569,0.166569,0.406607
+179s,12.288,24,10,protocol,7.5,500,4164,8.328,3740,3160,0.84492,0.566838,0.299288,0.258281,0.209668,0.193476,0.174226,0.174226,0.174226,0.174226,0.40619
+180s,12.288,24,10,protocol,7.5,500,4231,8.462,3815,3357,0.879948,0.576025,0.296912,0.260722,0.212656,0.195563,0.177074,0.177074,0.177074,0.177074,0.405695
+181s,11.776,23,10,protocol,7.5,500,4410,8.82,3770,3339,0.885676,0.589133,0.308348,0.26956,0.221208,0.203978,0.184782,0.184782,0.184782,0.184782,0.407113
+182s,12.8,25,10,protocol,7.5,500,4125,8.25,3776,3233,0.856197,0.55494,0.285823,0.250608,0.205972,0.191167,0.172883,0.172883,0.172883,0.172883,0.406846
+183s,12.288,24,10,protocol,7.5,500,4292,8.584,3802,3361,0.884008,0.582756,0.295918,0.259743,0.213002,0.199239,0.180003,0.180003,0.180003,0.180003,0.406693
+184s,12.288,24,10,protocol,7.5,500,4218,8.436,3804,3265,0.858307,0.562141,0.290937,0.25425,0.207783,0.195658,0.176959,0.176959,0.176959,0.176959,0.406678
+185s,13.824,27,10,protocol,7.5,500,4088,8.176,3798,3220,0.847815,0.541144,0.280846,0.24526,0.199717,0.189172,0.171707,0.171707,0.171707,0.171707,0.406668
+186s,14.336,28,10,protocol,7.5,500,4208,8.416,3776,3138,0.831038,0.531246,0.286609,0.248803,0.205268,0.194599,0.176658,0.176658,0.176658,0.176658,0.406655
+187s,12.288,24,10,protocol,7.5,500,4175,8.35,3840,3150,0.820312,0.531474,0.282744,0.24553,0.203818,0.192467,0.17517,0.17517,0.17517,0.17517,0.406882
+188s,10.24,20,10,protocol,7.5,500,4128,8.256,4123,3298,0.799903,0.525921,0.27843,0.240321,0.20174,0.190073,0.173024,0.173024,0.173024,0.173024,0.407504
+189s,10.752,21,10,protocol,7.5,500,4347,8.694,4291,3424,0.797949,0.54299,0.293796,0.251796,0.21209,0.199917,0.182188,0.182188,0.182188,0.182188,0.407827
+190s,12.288,24,10,protocol,7.5,500,4597,9.194,4453,3618,0.812486,0.5631,0.309521,0.262851,0.224178,0.211104,0.192649,0.192649,0.192649,0.192649,0.407525
+191s,10.24,20,10,protocol,7.5,500,4788,9.576,4702,3971,0.844534,0.595372,0.321213,0.272789,0.233515,0.219633,0.200452,0.200452,0.200452,0.200452,0.407163
+192s,10.24,20,10,protocol,7.5,500,4836,9.672,4762,4015,0.843133,0.602236,0.320945,0.272359,0.235764,0.221937,0.202343,0.202343,0.202343,0.202343,0.406796
+193s,10.24,20,10,protocol,7.5,500,5132,10.264,4821,4129,0.856461,0.625169,0.337632,0.290584,0.250464,0.236323,0.214728,0.214728,0.214728,0.214728,0.406447
+194s,10.24,20,10,protocol,7.5,500,5135,10.27,4858,4141,0.852408,0.627507,0.33431,0.29363,0.250537,0.236854,0.214854,0.214854,0.214854,0.214854,0.40609
+195s,10.24,20,10,protocol,7.5,500,4911,9.822,4886,4249,0.869628,0.626016,0.317782,0.281885,0.240053,0.226648,0.205481,0.205481,0.205481,0.205481,0.405766
+196s,13.312,26,10,protocol,7.5,500,4848,9.696,4880,4163,0.853074,0.609637,0.313583,0.281451,0.237368,0.22403,0.202845,0.202845,0.202845,0.202845,0.407129
+197s,14.848,29,10,protocol,7.5,500,5226,10.452,4880,4297,0.880533,0.648667,0.338165,0.305293,0.255926,0.241497,0.218661,0.218661,0.218661,0.218661,0.406825
+198s,14.336,28,10,protocol,7.5,500,4806,9.612,4880,3964,0.812295,0.573385,0.309785,0.280528,0.235357,0.22215,0.201088,0.201088,0.201088,0.201088,0.406585
+199s,14.336,28,10,protocol,7.5,500,4638,9.276,4862,3936,0.809543,0.562596,0.296927,0.271514,0.22713,0.214842,0.194172,0.194172,0.194172,0.194172,0.40643
+200s,14.336,28,10,protocol,7.5,500,4765,9.53,4858,4036,0.830795,0.576138,0.30541,0.27921,0.233624,0.221052,0.199707,0.199707,0.199707,0.199707,0.406224
+201s,14.336,28,10,protocol,7.5,500,4781,9.562,4872,3981,0.817118,0.575065,0.305476,0.27928,0.2348,0.222331,0.200377,0.200377,0.200377,0.200377,0.405984
+202s,14.336,28,10,protocol,7.5,500,5191,10.382,5039,4233,0.840048,0.614623,0.331609,0.302612,0.255211,0.241307,0.217561,0.217561,0.217561,0.217561,0.405732
+203s,14.336,28,10,protocol,7.5,500,5004,10.008,5192,4132,0.79584,0.586439,0.318726,0.291915,0.246333,0.232528,0.209723,0.209723,0.209723,0.209723,0.405572
+204s,14.336,28,10,protocol,7.5,500,5411,10.822,5174,4378,0.846154,0.626014,0.34465,0.315694,0.266946,0.251651,0.226971,0.226971,0.226971,0.226971,0.405319
+205s,14.336,28,10,protocol,7.5,500,5021,10.042,5178,4211,0.813248,0.58688,0.319809,0.293043,0.248318,0.233992,0.210612,0.210612,0.210612,0.210612,0.405004
+206s,14.336,28,10,protocol,7.5,500,5496,10.992,5172,4472,0.864656,0.62748,0.350064,0.321028,0.27181,0.256535,0.230769,0.230769,0.230769,0.230769,0.404659
+207s,14.336,28,10,protocol,7.5,500,5513,11.026,5144,4400,0.855365,0.61745,0.351326,0.32204,0.272651,0.257472,0.231639,0.231639,0.231639,0.231639,0.404281
+208s,14.336,28,10,protocol,7.5,500,5340,10.68,5140,4334,0.843191,0.602504,0.340561,0.311588,0.264095,0.249743,0.22437,0.22437,0.22437,0.22437,0.403889
+209s,14.336,28,10,protocol,7.5,500,5365,10.73,5140,4394,0.854864,0.608631,0.342156,0.313011,0.265331,0.250912,0.225477,0.225477,0.225477,0.225477,0.403528
+210s,14.336,28,10,protocol,7.5,500,5324,10.648,5140,4283,0.833268,0.596424,0.339584,0.310546,0.263304,0.249018,0.223886,0.223886,0.223886,0.223886,0.403186
+211s,12.8,25,10,protocol,7.5,500,5005,10.01,5140,4325,0.84144,0.574411,0.319604,0.291259,0.247527,0.234053,0.210471,0.210471,0.210471,0.210471,0.404661
+212s,12.8,25,10,protocol,7.5,500,5237,10.474,5130,4139,0.806823,0.580977,0.334419,0.303313,0.259001,0.244514,0.22019,0.22019,0.22019,0.22019,0.40461
+213s,12.288,24,10,protocol,7.5,500,5219,10.438,5120,4124,0.805469,0.574565,0.332929,0.297769,0.258111,0.243424,0.219286,0.219286,0.219286,0.219286,0.404599
+214s,12.288,24,10,protocol,7.5,500,5227,10.454,5172,4194,0.810905,0.577664,0.332888,0.295913,0.258302,0.243162,0.219437,0.219437,0.219437,0.219437,0.40454
+215s,12.288,24,10,protocol,7.5,500,5235,10.47,5512,4449,0.807148,0.589979,0.330055,0.295863,0.258595,0.243488,0.219589,0.219589,0.219589,0.219589,0.404376
+216s,12.288,24,10,protocol,7.5,500,5515,11.03,5722,4688,0.819294,0.614854,0.346921,0.311758,0.272023,0.256559,0.231334,0.231334,0.231334,0.231334,0.40409
+217s,12.288,24,10,protocol,7.5,500,5628,11.256,5755,4692,0.815291,0.624249,0.350327,0.318326,0.277132,0.261767,0.236074,0.236074,0.236074,0.236074,0.403938
+218s,12.288,24,10,protocol,7.5,500,5610,11.22,5920,4817,0.813682,0.629913,0.343708,0.317308,0.275811,0.26093,0.235319,0.235319,0.235319,0.235319,0.403802
