SimulationSecond,ReceiveRate,PacketsReceived,NumberOfSinks,RoutingProtocol,TransmissionPower,WavePktsSent,WavePtksReceived,WavePktsPpr,ExpectedWavePktsReceived,ExpectedWavePktsInCoverageReceived,BSM_PDR1,BSM_PDR2,BSM_PDR3,BSM_PDR4,BSM_PDR5,BSM_PDR6,BSM_PDR7,BSM_PDR8,BSM_PDR9,BSM_PDR10,MacPhyOverhead
+0s,0,0,10,protocol,7.5,0,0,0,0,0,0,0,0,0,0,0,0,0,0,0,0
+1s,0,0,10,protocol,7.5,0,0,0,0,0,0,0,0,0,0,0,0,0,0,0,1
+2s,2.048,4,10,protocol,7.5,50,120,2.4,0,0,0,0,1,1,0.588235,0.5,0.333333,0.333333,0.333333,0.333333,0.438925
+3s,6.144,12,10,protocol,7.5,50,113,2.26,0,0,0,0,0.65,0.65,0.325,0.325,0.216667,0.216667,0.216667,0.216667,0.320228
+4s,6.144,12,10,protocol,7.5,50,109,2.18,0,0,0,0,0,0,0,0,0,0,0,0,0.271261
+5s,6.144,12,10,protocol,7.5,50,111,2.22,0,0,0,0,0,0,0,0,0,0,0,0,0.244923
+6s,6.144,12,10,protocol,7.5,50,123,2.46,0,0,0,0,0,0,0,0,0,0,0,0,0.228471
+7s,6.144,12,10,protocol,7.5,50,130,2.6,0,0,0,0,0,0,0,0,0,0,0,0,0.21722
+8s,6.144,12,10,protocol,7.5,50,50,1,0,0,0,0,0,0,0,0,0,0,0,0,0.209039
+9s,6.144,12,10,protocol,7.5,50,42,0.84,0,0,0,0,0,0,0,0,0,0,0,0,0.202823
+10s,6.144,12,10,protocol,7.5,50,39,0.78,0,0,0,0,0,0,0,0,0,0,0,0,0.19794
+11s,6.144,12,10,protocol,7.5,50,41,0.82,0,0,0,0,0,0,0,0,0,0,0,0,0.194002
+12s,6.144,12,10,protocol,7.5,70,128,1.82857,0,0,0,0,0,0,0,0,0,0,0,0,0.192327
+13s,6.144,12,10,protocol,7.5,70,127,1.81429,0,0,0,0,0,0,0,0,0,0,0,0,0.190999
+14s,6.144,12,10,protocol,7.5,70,121,1.72857,0,0,0,0,0,0,0,0,0,0,0,0,0.189922
+15s,6.144,12,10,protocol,7.5,70,139,1.98571,0,0,0,0,0.4,0.2,0.140351,0.114286,0.1,0.1,0.1,0.1,0.189029
+16s,6.144,12,10,protocol,7.5,70,146,2.08571,0,0,0,0,0.45,0.225,0.138462,0.128571,0.1125,0.1125,0.1125,0.1125,0.215937
+17s,6.144,12,10,protocol,7.5,70,177,2.52857,0,0,0,0.95,0.875,0.4375,0.25,0.25,0.236486,0.236486,0.236486,0.236486,0.215098
+18s,6.144,12,10,protocol,7.5,70,96,1.37143,0,0,0,0.852941,0.568966,0.284483,0.235714,0.235714,0.20625,0.20625,0.20625,0.20625,0.214373
+19s,6.144,12,10,protocol,7.5,70,97,1.38571,0,0,0,0.958333,0.625,0.333333,0.285714,0.285714,0.229885,0.229885,0.229885,0.229885,0.216372
+20s,6.144,12,10,protocol,7.5,70,110,1.57143,0,0,0,0.95,0.55,0.404412,0.392857,0.361842,0.275,0.275,0.275,0.275,0.215912
+21s,6.144,12,10,protocol,7.5,70,99,1.41429,0,0,0,0.882353,0.366667,0.314286,0.314286,0.244444,0.213592,0.213592,0.213592,0.213592,0.216065
+22s,6.144,12,10,protocol,7.5,90,168,1.86667,0,0,0,0.880952,0.441667,0.335443,0.243119,0.203846,0.165625,0.165625,0.165625,0.165625,0.215679
+23s,6.144,12,10,protocol,7.5,90,176,1.95556,0,0,0,0.966667,0.568627,0.391892,0.261261,0.207143,0.169591,0.169591,0.169591,0.169591,0.215341
+24s,6.144,12,10,protocol,7.5,90,173,1.92222,0,0,0,0.916667,0.55,0.34375,0.205224,0.196429,0.139594,0.139594,0.139594,0.139594,0.215813
+25s,6.144,12,10,protocol,7.5,90,192,2.13333,0,0,0,0.972222,0.5,0.315217,0.207143,0.189542,0.145,0.145,0.145,0.145,0.215505
+26s,6.144,12,10,protocol,7.5,90,170,1.88889,18,18,1,0.95,0.333333,0.21,0.146853,0.13125,0.100962,0.100962,0.100962,0.100962,0.215505
+27s,5.12,10,10,protocol,7.5,90,157,1.74444,20,20,1,1,0.419355,0.236364,0.164557,0.157576,0.118182,0.118182,0.118182,0.118182,0.217485
+28s,2.56,5,10,protocol,7.5,90,101,1.12222,20,20,1,0.95,0.448276,0.211382,0.159509,0.146067,0.115556,0.115556,0.115556,0.115556,0.224533
+29s,2.048,4,10,protocol,7.5,90,88,0.977778,36,35,0.972222,0.975,0.318182,0.156716,0.119318,0.111702,0.0921053,0.0921053,0.0921053,0.0921053,0.23198
+30s,2.048,4,10,protocol,7.5,90,98,1.08889,32,32,1,1,0.410448,0.192982,0.157143,0.1375,0.119565,0.119565,0.119565,0.119565,0.238825
+31s,2.048,4,10,protocol,7.5,150,174,1.16,82,78,0.95122,0.898438,0.519403,0.270607,0.204225,0.150911,0.127941,0.127941,0.127941,0.127941,0.251348
+32s,2.048,4,10,protocol,7.5,170,262,1.54118,60,60,1,0.952381,0.620112,0.362745,0.253136,0.177316,0.146825,0.146825,0.146825,0.146825,0.255804
+33s,2.048,4,10,protocol,7.5,170,262,1.54118,48,48,1,0.967949,0.652941,0.368771,0.249438,0.171296,0.147215,0.147215,0.147215,0.147215,0.259656
+34s,2.048,4,10,protocol,7.5,170,264,1.55294,84,83,0.988095,0.96875,0.741722,0.374582,0.23382,0.17806,0.145928,0.145928,0.145928,0.145928,0.263095
+35s,2.048,4,10,protocol,7.5,170,228,1.34118,100,98,0.98,0.95625,0.661972,0.3008,0.195426,0.154098,0.120668,0.120668,0.120668,0.120668,0.266848
+36s,2.048,4,10,protocol,7.5,170,224,1.31765,75,75,1,0.979167,0.621622,0.279635,0.185111,0.148867,0.116603,0.116603,0.116603,0.116603,0.269899
+37s,2.048,4,10,protocol,7.5,170,234,1.37647,20,20,1,0.950617,0.678322,0.282799,0.188533,0.15798,0.122475,0.122475,0.122475,0.122475,0.272429
+38s,0.512,1,10,protocol,7.5,170,200,1.17647,28,26,0.928571,0.877193,0.563953,0.276353,0.193227,0.149691,0.120797,0.120797,0.120797,0.120797,0.276015
+39s,0,0,10,protocol,7.5,170,207,1.21765,46,46,1,0.948864,0.591429,0.294034,0.205154,0.157295,0.125836,0.125836,0.125836,0.125836,0.279904
+40s,0,0,10,protocol,7.5,170,205,1.20588,44,43,0.977273,0.916667,0.572626,0.282369,0.204591,0.153904,0.12073,0.12073,0.12073,0.12073,0.283255
+41s,0,0,10,protocol,7.5,170,218,1.28235,56,56,1,0.890805,0.57672,0.293011,0.212683,0.167178,0.122679,0.122679,0.122679,0.122679,0.286869
+42s,0,0,10,protocol,7.5,190,264,1.38947,44,44,1,0.886364,0.559633,0.335165,0.224265,0.165424,0.122244,0.122244,0.122244,0.122244,0.289494
+43s,0,0,10,protocol,7.5,190,278,1.46316,38,37,0.973684,0.896226,0.578475,0.346309,0.22913,0.168407,0.130303,0.130303,0.130303,0.130303,0.291811
+44s,0,0,10,protocol,7.5,190,267,1.40526,54,53,0.981481,0.915888,0.541667,0.335142,0.21441,0.159149,0.126278,0.126278,0.126278,0.126278,0.293927
+45s,0,0,10,protocol,7.5,190,266,1.4,94,94,1,0.905738,0.577465,0.319481,0.197908,0.15974,0.124368,0.124368,0.124368,0.124368,0.295865
+46s,4.096,8,10,protocol,7.5,190,300,1.57895,100,100,1,0.930435,0.740741,0.342298,0.216383,0.179718,0.13993,0.13993,0.13993,0.13993,0.305987
+47s,4.608,9,10,protocol,7.5,190,330,1.73684,98,98,1,0.965347,0.750605,0.371703,0.238829,0.193508,0.154536,0.154536,0.154536,0.154536,0.311001
+48s,2.048,4,10,protocol,7.5,190,316,1.66316,82,81,0.987805,0.942308,0.710046,0.364169,0.2488,0.196338,0.157548,0.157548,0.157548,0.157548,0.316245
+49s,2.048,4,10,protocol,7.5,190,305,1.60526,78,78,1,0.939286,0.72619,0.342697,0.238281,0.196521,0.150692,0.150692,0.150692,0.150692,0.321096
+50s,2.048,4,10,protocol,7.5,190,292,1.53684,116,116,1,0.968,0.752577,0.323725,0.215976,0.183187,0.141885,0.141885,0.141885,0.141885,0.326706
+51s,2.048,4,10,protocol,7.5,190,249,1.31053,114,113,0.991228,0.877119,0.648438,0.257231,0.18921,0.153704,0.120757,0.120757,0.120757,0.120757,0.331558
+52s,2.048,4,10,protocol,7.5,210,269,1.28095,106,106,1,0.929293,0.611364,0.261165,0.188112,0.146674,0.114859,0.114859,0.114859,0.114859,0.33583
+53s,2.048,4,10,protocol,7.5,210,266,1.26667,72,70,0.972222,0.817757,0.519531,0.258002,0.184979,0.140221,0.114458,0.114458,0.114458,0.114458,0.341747
+54s,2.048,4,10,protocol,7.5,210,264,1.25714,58,58,1,0.910714,0.501901,0.258317,0.177898,0.136434,0.114583,0.114583,0.114583,0.114583,0.347089
+55s,2.048,4,10,protocol,7.5,210,261,1.24286,112,112,1,0.975248,0.534836,0.25048,0.165609,0.136364,0.114776,0.114776,0.114776,0.114776,0.352182
+56s,2.048,4,10,protocol,7.5,210,249,1.18571,136,136,1,0.924528,0.5,0.226983,0.161061,0.129958,0.109643,0.109643,0.109643,0.109643,0.356843
+57s,2.048,4,10,protocol,7.5,210,252,1.2,92,92,1,0.896396,0.473684,0.225806,0.164384,0.126316,0.110526,0.110526,0.110526,0.110526,0.36103
+58s,2.048,4,10,protocol,7.5,210,273,1.3,50,49,0.98,0.826271,0.469072,0.249543,0.182976,0.137879,0.12069,0.12069,0.12069,0.12069,0.365
+59s,2.048,4,10,protocol,7.5,210,263,1.25238,64,60,0.9375,0.849057,0.431856,0.25,0.182133,0.136411,0.114948,0.114948,0.114948,0.114948,0.368778
+60s,2.048,4,10,protocol,7.5,210,274,1.30476,112,107,0.955357,0.9,0.509294,0.251838,0.180501,0.144667,0.122103,0.122103,0.122103,0.122103,0.372024
+61s,2.048,4,10,protocol,7.5,210,254,1.20952,122,117,0.959016,0.870192,0.515213,0.240987,0.169333,0.136412,0.114414,0.114414,0.114414,0.114414,0.377937
+62s,2.048,4,10,protocol,7.5,210,298,1.41905,87,87,1,0.927273,0.600806,0.282197,0.20397,0.162664,0.131567,0.131567,0.131567,0.131567,0.379769
+63s,0,0,10,protocol,7.5,210,316,1.50476,94,94,1,0.926606,0.614786,0.307992,0.223164,0.171553,0.136856,0.136856,0.136856,0.136856,0.382344
+64s,0,0,10,protocol,7.5,210,280,1.33333,120,118,0.983333,0.92233,0.538462,0.273438,0.198582,0.148778,0.120898,0.120898,0.120898,0.120898,0.38544
+65s,0,0,10,protocol,7.5,210,251,1.19524,146,146,1,0.970588,0.494094,0.241346,0.187313,0.137309,0.113165,0.113165,0.113165,0.113165,0.388952
+66s,0,0,10,protocol,7.5,210,266,1.26667,124,122,0.983871,0.942857,0.558824,0.277662,0.202435,0.143011,0.120036,0.120036,0.120036,0.120036,0.391777
+67s,0,0,10,protocol,7.5,210,277,1.31905,126,124,0.984127,0.960177,0.501812,0.287344,0.214065,0.150543,0.124104,0.124104,0.124104,0.124104,0.394613
+68s,0,0,10,protocol,7.5,210,320,1.52381,89,89,1,0.939655,0.538721,0.345572,0.239521,0.174863,0.147059,0.147059,0.147059,0.147059,0.39708
+69s,0,0,10,protocol,7.5,210,295,1.40476,108,108,1,0.959091,0.469745,0.335609,0.22281,0.171312,0.13495,0.13495,0.13495,0.13495,0.39971
+70s,0,0,10,protocol,7.5,210,270,1.28571,140,140,1,0.936893,0.462329,0.296053,0.208012,0.162455,0.126642,0.126642,0.126642,0.126642,0.4025
+71s,0,0,10,protocol,7.5,210,272,1.29524,126,125,0.992063,0.95,0.468966,0.291845,0.209553,0.163855,0.129524,0.129524,0.129524,0.129524,0.40516
+72s,0,0,10,protocol,7.5,210,254,1.20952,111,109,0.981982,0.898551,0.436426,0.270213,0.191843,0.155828,0.121764,0.121764,0.121764,0.121764,0.407526
+73s,0,0,10,protocol,7.5,210,258,1.22857,114,114,1,0.979592,0.460714,0.270724,0.203791,0.155609,0.12274,0.12274,0.12274,0.12274,0.409355
+74s,0,0,10,protocol,7.5,210,231,1.1,120,118,0.983333,0.924731,0.399654,0.236196,0.180047,0.140768,0.110105,0.110105,0.110105,0.110105,0.411142
+75s,0,0,10,protocol,7.5,210,251,1.19524,134,131,0.977612,0.944444,0.464815,0.261458,0.203074,0.14905,0.121256,0.121256,0.121256,0.121256,0.412883
+76s,0,0,10,protocol,7.5,210,280,1.33333,122,122,1,0.97,0.538462,0.292887,0.230263,0.164512,0.140987,0.140987,0.140987,0.140987,0.415379
+77s,0,0,10,protocol,7.5,210,283,1.34762,140,140,1,0.957983,0.514545,0.304301,0.243966,0.169258,0.142211,0.142211,0.142211,0.142211,0.416934
+78s,0,0,10,protocol,7.5,210,291,1.38571,140,136,0.971429,0.909091,0.589069,0.316304,0.245777,0.175937,0.146231,0.146231,0.146231,0.146231,0.418895
+79s,0,0,10,protocol,7.5,210,357,1.7,138,138,1,0.958333,0.652651,0.396667,0.313708,0.220916,0.179758,0.179758,0.179758,0.179758,0.42077
+80s,0.512,1,10,protocol,7.5,210,369,1.75714,160,160,1,0.946429,0.668478,0.423651,0.332432,0.232368,0.186552,0.186552,0.186552,0.186552,0.422516
+81s,2.048,4,10,protocol,7.5,210,463,2.20476,160,160,1,0.960452,0.890385,0.526136,0.431903,0.294904,0.238906,0.238906,0.238906,0.238906,0.423946
+82s,2.048,4,10,protocol,7.5,210,463,2.20476,188,188,1,0.940476,0.890385,0.526136,0.423993,0.291929,0.23768,0.23768,0.23768,0.23768,0.425598
+83s,3.072,6,10,protocol,7.5,210,466,2.21905,229,229,1,0.971354,0.896154,0.55675,0.44381,0.29125,0.238485,0.238485,0.238485,0.238485,0.426825
+84s,4.096,8,10,protocol,7.5,210,445,2.11905,296,296,1,0.973684,0.834897,0.536145,0.433723,0.272005,0.232255,0.232255,0.232255,0.232255,0.428022
+85s,3.072,6,10,protocol,7.5,210,439,2.09048,308,308,1,0.997222,0.714984,0.521378,0.432087,0.266383,0.230325,0.230325,0.230325,0.230325,0.429371
+86s,3.584,7,10,protocol,7.5,210,442,2.10476,300,299,0.996667,0.991667,0.690625,0.542998,0.415414,0.272167,0.229491,0.229491,0.229491,0.229491,0.430722
+87s,4.096,8,10,protocol,7.5,210,433,2.0619,270,270,1,0.96648,0.634897,0.532595,0.377178,0.273877,0.224352,0.224352,0.224352,0.224352,0.431852
+88s,6.144,12,10,protocol,7.5,210,527,2.50952,260,260,1,0.97733,0.761561,0.651422,0.455882,0.329787,0.28212,0.28212,0.28212,0.28212,0.432631
+89s,8.192,16,10,protocol,7.5,210,520,2.47619,248,239,0.96371,0.943439,0.766962,0.589569,0.465116,0.326223,0.282609,0.282609,0.282609,0.282609,0.433012
+90s,9.728,19,10,protocol,7.5,210,521,2.48095,272,272,1,0.971861,0.801538,0.575691,0.467684,0.328086,0.29204,0.29204,0.29204,0.29204,0.433066
+91s,11.776,23,10,protocol,7.5,210,511,2.43333,330,329,0.99697,0.978261,0.744898,0.570312,0.442042,0.324651,0.291002,0.291002,0.291002,0.291002,0.433857
+92s,12.288,24,10,protocol,7.5,210,540,2.57143,393,382,0.97201,0.965739,0.791789,0.593407,0.459184,0.353403,0.318772,0.318772,0.318772,0.318772,0.433247
+93s,12.288,24,10,protocol,7.5,210,587,2.79524,400,394,0.985,0.981061,0.858187,0.655134,0.501281,0.391333,0.34408,0.34408,0.34408,0.34408,0.432578
+94s,12.288,24,10,protocol,7.5,210,584,2.78095,400,400,1,0.982394,0.80663,0.663636,0.503448,0.388815,0.332196,0.332196,0.332196,0.332196,0.431939
+95s,12.288,24,10,protocol,7.5,210,594,2.82857,438,438,1,0.991379,0.762516,0.646355,0.525664,0.405184,0.340206,0.340206,0.340206,0.340206,0.431407
+96s,12.288,24,10,protocol,7.5,210,632,3.00952,500,500,1,0.987931,0.842667,0.67234,0.584104,0.432877,0.363636,0.363636,0.363636,0.363636,0.430853
+97s,12.288,24,10,protocol,7.5,210,662,3.15238,532,515,0.968045,0.960784,0.894595,0.698312,0.635317,0.458131,0.381776,0.381776,0.381776,0.381776,0.430406
+98s,10.752,21,10,protocol,7.5,210,680,3.2381,540,540,1,0.99256,0.926431,0.714286,0.660836,0.472222,0.395349,0.395349,0.395349,0.395349,0.429678
+99s,10.24,20,10,protocol,7.5,210,666,3.17143,546,545,0.998168,0.984848,0.874016,0.708511,0.642857,0.45931,0.390845,0.390845,0.390845,0.390845,0.429102
+100s,10.24,20,10,protocol,7.5,210,657,3.12857,614,612,0.996743,0.984848,0.7954,0.704936,0.663636,0.45,0.386471,0.386471,0.386471,0.386471,0.428514
+101s,10.24,20,10,protocol,7.5,210,695,3.30952,638,629,0.985893,0.983333,0.827381,0.789773,0.723958,0.483983,0.408824,0.408824,0.408824,0.408824,0.427915
+102s,10.24,20,10,protocol,7.5,210,753,3.58571,620,615,0.991935,0.992837,0.913835,0.875581,0.784375,0.567873,0.451981,0.451981,0.451981,0.451981,0.427349
+103s,10.24,20,10,protocol,7.5,210,752,3.58095,620,598,0.964516,0.965789,0.917073,0.874419,0.798301,0.5875,0.447619,0.447619,0.447619,0.447619,0.426723
+104s,10.24,20,10,protocol,7.5,210,761,3.62381,622,605,0.972669,0.974868,0.928049,0.880787,0.809574,0.594531,0.43786,0.43786,0.43786,0.43786,0.426144
+105s,10.24,20,10,protocol,7.5,210,775,3.69048,676,676,1,0.997368,0.945122,0.899072,0.838745,0.614105,0.459941,0.459941,0.459941,0.459941,0.425499
+106s,8.192,16,10,protocol,7.5,210,744,3.54286,720,705,0.979167,0.977632,0.907317,0.867133,0.808696,0.6,0.462112,0.462112,0.462112,0.462112,0.426058
+107s,8.192,16,10,protocol,7.5,210,761,3.62381,720,708,0.983333,0.976316,0.939506,0.905952,0.836264,0.604928,0.507333,0.507333,0.507333,0.507333,0.425336
+108s,8.192,16,10,protocol,7.5,210,770,3.66667,720,714,0.991667,0.989474,0.9625,0.916667,0.871041,0.579819,0.530303,0.530303,0.530303,0.530303,0.424622
+109s,8.192,16,10,protocol,7.5,210,779,3.70952,736,736,1,0.998715,0.97375,0.927381,0.865556,0.573638,0.531378,0.531378,0.531378,0.531378,0.424014
+110s,8.192,16,10,protocol,7.5,210,769,3.6619,740,730,0.986486,0.985526,0.96125,0.930993,0.860179,0.571322,0.497413,0.497413,0.497413,0.497413,0.423433
+111s,8.192,16,10,protocol,7.5,210,762,3.62857,740,731,0.987838,0.988158,0.9525,0.929268,0.858108,0.568657,0.489089,0.489089,0.489089,0.489089,0.422849
+112s,8.192,16,10,protocol,7.5,210,760,3.61905,740,740,1,1,0.95,0.92233,0.83151,0.562963,0.493506,0.493506,0.493506,0.493506,0.422292
+113s,8.192,16,10,protocol,7.5,210,760,3.61905,748,748,1,1,0.95,0.902613,0.764588,0.55434,0.5,0.5,0.5,0.5,0.421622
+114s,8.192,16,10,protocol,7.5,210,746,3.55238,760,746,0.981579,0.981579,0.9325,0.867442,0.746,0.520223,0.48631,0.48631,0.48631,0.48631,0.421095
+115s,8.192,16,10,protocol,7.5,210,752,3.58095,760,752,0.989474,0.989474,0.94,0.856492,0.752,0.514012,0.488312,0.488312,0.488312,0.488312,0.420529
+116s,8.192,16,10,protocol,7.5,210,760,3.61905,760,760,1,1,0.95,0.785124,0.76,0.521978,0.493506,0.493506,0.493506,0.493506,0.419917
+117s,8.192,16,10,protocol,7.5,210,760,3.61905,760,760,1,1,0.95,0.76,0.759241,0.527778,0.493506,0.493506,0.493506,0.493506,0.419296
+118s,8.192,16,10,protocol,7.5,210,760,3.61905,760,760,1,1,0.945274,0.76,0.7393,0.527778,0.496084,0.496084,0.496084,0.496084,0.418686
+119s,8.192,16,10,protocol,7.5,210,760,3.61905,760,760,1,1,0.843507,0.76,0.730769,0.524862,0.5,0.5,0.5,0.5,0.418087
+120s,8.192,16,10,protocol,7.5,210,769,3.6619,760,759,0.998684,0.998684,0.801042,0.769,0.739423,0.526712,0.518194,0.518194,0.518194,0.518194,0.4175
+121s,10.24,20,10,protocol,7.5,210,846,4.02857,760,747,0.982895,0.981675,0.88125,0.842629,0.813462,0.579452,0.572395,0.572395,0.572395,0.572395,0.417834
+122s,10.24,20,10,protocol,7.5,210,917,4.36667,746,746,1,0.998818,0.955208,0.900786,0.881731,0.628082,0.588198,0.588198,0.588198,0.588198,0.417074
+123s,10.24,20,10,protocol,7.5,210,919,4.37619,740,740,1,1,0.957292,0.928283,0.883654,0.629452,0.581646,0.581646,0.581646,0.581646,0.416339
+124s,10.24,20,10,protocol,7.5,210,902,4.29524,744,735,0.987903,0.98,0.939583,0.920408,0.867308,0.617808,0.569444,0.569444,0.569444,0.569444,0.415658
+125s,10.24,20,10,protocol,7.5,210,917,4.36667,820,820,1,0.997778,0.953222,0.935714,0.881731,0.628082,0.563961,0.563961,0.563961,0.563961,0.414989
+126s,10.24,20,10,protocol,7.5,210,916,4.3619,860,860,1,0.995556,0.934694,0.934694,0.880769,0.636996,0.540094,0.540094,0.540094,0.540094,0.414357
+127s,10.24,20,10,protocol,7.5,210,930,4.42857,850,850,1,0.998889,0.94898,0.94898,0.902913,0.670029,0.540698,0.540698,0.540698,0.540698,0.413796
+128s,10.24,20,10,protocol,7.5,210,949,4.51905,860,852,0.990698,0.989842,0.968367,0.968367,0.930392,0.715686,0.551744,0.551744,0.551744,0.551744,0.413125
+129s,10.24,20,10,protocol,7.5,210,951,4.52857,860,858,0.997674,0.994432,0.970408,0.964503,0.932353,0.731538,0.552907,0.552907,0.552907,0.552907,0.412425
+130s,10.24,20,10,protocol,7.5,210,948,4.51429,860,860,1,1,0.967347,0.929412,0.929412,0.725881,0.551163,0.551163,0.551163,0.551163,0.411806
+131s,10.24,20,10,protocol,7.5,210,938,4.46667,868,868,1,1,0.957143,0.919608,0.919608,0.662429,0.545349,0.545349,0.545349,0.545349,0.41111
+132s,10.24,20,10,protocol,7.5,210,931,4.43333,880,871,0.989773,0.98991,0.95,0.912745,0.912745,0.646528,0.541279,0.541279,0.541279,0.541279,0.410505
+133s,10.24,20,10,protocol,7.5,210,936,4.45714,880,878,0.997727,0.997727,0.972973,0.917647,0.917647,0.65,0.544186,0.544186,0.544186,0.544186,0.409874
+134s,10.24,20,10,protocol,7.5,210,936,4.45714,880,880,1,1,0.975,0.917647,0.917647,0.65,0.546729,0.546729,0.546729,0.546729,0.409227
+135s,10.24,20,10,protocol,7.5,210,927,4.41429,880,872,0.990909,0.990909,0.949795,0.908824,0.894788,0.64375,0.563526,0.563526,0.563526,0.563526,0.408597
+136s,10.24,20,10,protocol,7.5,210,901,4.29048,880,865,0.982955,0.982955,0.919388,0.883333,0.825092,0.625694,0.568813,0.568813,0.568813,0.568813,0.410949
+137s,10.24,20,10,protocol,7.5,210,917,4.36667,880,880,1,1,0.935714,0.89902,0.833636,0.636806,0.58038,0.58038,0.58038,0.58038,0.412512
+138s,10.24,20,10,protocol,7.5,210,918,4.37143,874,862,0.98627,0.986425,0.936735,0.9,0.834545,0.6375,0.581013,0.581013,0.581013,0.581013,0.41406
+139s,10.24,20,10,protocol,7.5,210,923,4.39524,860,846,0.983721,0.982222,0.945697,0.904902,0.839091,0.640972,0.581234,0.581234,0.581234,0.581234,0.415685
+140s,10.24,20,10,protocol,7.5,210,899,4.28095,852,815,0.956573,0.956522,0.917347,0.881373,0.84334,0.624306,0.561875,0.561875,0.561875,0.561875,0.417175
+141s,10.24,20,10,protocol,7.5,210,950,4.52381,840,837,0.996429,0.992391,0.969388,0.931373,0.913462,0.659722,0.591532,0.591532,0.591532,0.591532,0.418611
+142s,10.24,20,10,protocol,7.5,210,948,4.51429,840,834,0.992857,0.987179,0.967347,0.929412,0.922179,0.658333,0.554386,0.554386,0.554386,0.554386,0.42007
+143s,10.24,20,10,protocol,7.5,210,955,4.54762,858,857,0.998834,0.994612,0.97449,0.936275,0.936275,0.663194,0.542614,0.542614,0.542614,0.542614,0.421472
+144s,10.24,20,10,protocol,7.5,210,951,4.52857,880,873,0.992045,0.992257,0.970408,0.951,0.932353,0.659501,0.53427,0.53427,0.53427,0.53427,0.422885
+145s,10.24,20,10,protocol,7.5,210,936,4.45714,898,897,0.998886,0.998889,0.955102,0.936,0.917647,0.63587,0.525843,0.525843,0.525843,0.525843,0.424228
+146s,10.24,20,10,protocol,7.5,210,907,4.31905,900,888,0.986667,0.986667,0.92551,0.907,0.889216,0.581783,0.509551,0.509551,0.509551,0.509551,0.425524
+147s,10.24,20,10,protocol,7.5,210,891,4.24286,900,872,0.968889,0.968889,0.909184,0.891,0.873529,0.543293,0.500562,0.500562,0.500562,0.500562,0.426798
+148s,10.24,20,10,protocol,7.5,210,897,4.27143,900,878,0.975556,0.975556,0.915306,0.897,0.879412,0.546951,0.503933,0.503933,0.503933,0.503933,0.428029
+149s,10.24,20,10,protocol,7.5,210,907,4.31905,900,889,0.987778,0.987778,0.936983,0.907,0.889216,0.553049,0.509551,0.509551,0.509551,0.509551,0.429236
+150s,10.24,20,10,protocol,7.5,210,919,4.37619,900,900,1,1,0.957292,0.919,0.90098,0.560366,0.516292,0.516292,0.516292,0.516292,0.430324
+151s,10.24,20,10,protocol,7.5,210,918,4.37143,900,899,0.998889,0.998889,0.95625,0.918,0.9,0.565271,0.51573,0.51573,0.51573,0.51573,0.431819
+152s,10.24,20,10,protocol,7.5,210,905,4.30952,900,885,0.983333,0.983333,0.929158,0.905,0.887255,0.584625,0.508427,0.508427,0.508427,0.508427,0.432793
+153s,10.24,20,10,protocol,7.5,210,891,4.24286,890,863,0.969663,0.97,0.91291,0.891,0.868421,0.59242,0.500562,0.500562,0.500562,0.500562,0.433765
+154s,10.24,20,10,protocol,7.5,210,896,4.26667,868,844,0.97235,0.973333,0.933333,0.896,0.861538,0.597333,0.503371,0.503371,0.503371,0.503371,0.434739
+155s,10.24,20,10,protocol,7.5,210,898,4.27619,860,839,0.975581,0.976667,0.935417,0.898,0.863462,0.598667,0.498889,0.498889,0.498889,0.498889,0.435689
+156s,10.24,20,10,protocol,7.5,210,909,4.32857,860,851,0.989535,0.987778,0.946875,0.909,0.874038,0.606,0.513559,0.513559,0.513559,0.513559,0.436592
+157s,10.24,20,10,protocol,7.5,210,900,4.28571,860,841,0.977907,0.978652,0.9375,0.9,0.865385,0.6,0.531915,0.531915,0.531915,0.531915,0.437465
+158s,10.24,20,10,protocol,7.5,210,916,4.3619,860,860,1,0.996583,0.954167,0.916,0.880769,0.610667,0.55015,0.55015,0.55015,0.55015,0.438312
+159s,10.24,20,10,protocol,7.5,210,890,4.2381,860,842,0.97907,0.97907,0.927083,0.89,0.855769,0.593333,0.536145,0.536145,0.536145,0.536145,0.439134
+160s,10.24,20,10,protocol,7.5,210,887,4.22381,860,855,0.994186,0.994186,0.923958,0.887,0.852885,0.591333,0.534337,0.534337,0.534337,0.534337,0.43994
+161s,10.24,20,10,protocol,7.5,210,861,4.1,860,841,0.977907,0.977907,0.896875,0.844118,0.827885,0.567942,0.517117,0.517117,0.517117,0.517117,0.440753
+162s,10.24,20,10,protocol,7.5,210,859,4.09048,860,842,0.97907,0.97907,0.909958,0.842157,0.825962,0.565132,0.51131,0.51131,0.51131,0.51131,0.441529
+163s,10.24,20,10,protocol,7.5,210,861,4.1,860,841,0.977907,0.977907,0.931818,0.844118,0.827885,0.566447,0.5125,0.5125,0.5125,0.5125,0.442298
+164s,10.24,20,10,protocol,7.5,210,865,4.11905,860,846,0.983721,0.983721,0.940217,0.848039,0.831731,0.569079,0.514881,0.514881,0.514881,0.514881,0.443069
+165s,10.24,20,10,protocol,7.5,210,868,4.13333,860,848,0.986047,0.986047,0.943478,0.854331,0.834615,0.571053,0.516667,0.516667,0.516667,0.516667,0.443821
+166s,10.24,20,10,protocol,7.5,210,859,4.09048,860,839,0.975581,0.975581,0.933696,0.867677,0.825962,0.565132,0.51131,0.51131,0.51131,0.51131,0.444955
+167s,10.24,20,10,protocol,7.5,210,861,4.1,860,841,0.977907,0.977907,0.93587,0.896875,0.827885,0.559091,0.5125,0.5125,0.5125,0.5125,0.44568
+168s,10.24,20,10,protocol,7.5,210,876,4.17143,860,857,0.996512,0.996512,0.952174,0.9125,0.842308,0.568831,0.521429,0.521429,0.521429,0.521429,0.446409
+169s,10.24,20,10,protocol,7.5,210,856,4.07619,860,838,0.974419,0.974419,0.930435,0.891667,0.820709,0.555844,0.509524,0.509524,0.509524,0.509524,0.447158
+170s,10.24,20,10,protocol,7.5,210,857,4.08095,860,838,0.974419,0.974419,0.931522,0.892708,0.832847,0.556494,0.510119,0.510119,0.510119,0.510119,0.447925
+171s,10.24,20,10,protocol,7.5,210,861,4.1,860,845,0.982558,0.982558,0.93587,0.908228,0.854167,0.559091,0.5125,0.5125,0.5125,0.5125,0.448612
+172s,10.24,20,10,protocol,7.5,210,864,4.11429,860,845,0.982558,0.982558,0.93913,0.919149,0.847059,0.561769,0.514286,0.514286,0.514286,0.514286,0.44928
+173s,10.24,20,10,protocol,7.5,210,866,4.12381,860,851,0.989535,0.989535,0.941304,0.921277,0.84902,0.570487,0.515476,0.515476,0.515476,0.515476,0.449944
