SimulationSecond,ReceiveRate,PacketsReceived,NumberOfSinks,RoutingProtocol,TransmissionPower,WavePktsSent,WavePtksReceived,WavePktsPpr,ExpectedWavePktsReceived,ExpectedWavePktsInCoverageReceived,BSM_PDR1,BSM_PDR2,BSM_PDR3,BSM_PDR4,BSM_PDR5,BSM_PDR6,BSM_PDR7,BSM_PDR8,BSM_PDR9,BSM_PDR10,MacPhyOverhead
+0s,0,0,10,protocol,7.5,0,0,0,0,0,0,0,0,0,0,0,0,0,0,0,0
+1s,0,0,10,protocol,7.5,0,0,0,0,0,0,0,0,0,0,0,0,0,0,0,1
+2s,2.048,4,10,protocol,7.5,50,120,2.4,0,0,0,0,1,1,0.588235,0.5,0.333333,0.333333,0.333333,0.333333,0.413991
+3s,6.144,12,10,protocol,7.5,50,113,2.26,0,0,0,0,0.65,0.65,0.325,0.325,0.216667,0.216667,0.216667,0.216667,0.378354
+4s,6.144,12,10,protocol,7.5,50,109,2.18,0,0,0,0,0,0,0,0,0,0,0,0,0.352235
+5s,2.56,5,10,protocol,7.5,50,111,2.22,0,0,0,0,0,0,0,0,0,0,0,0,0.332273
+6s,9.728,19,10,protocol,7.5,50,123,2.46,0,0,0,0,0,0,0,0,0,0,0,0,0.32882
+7s,6.144,12,10,protocol,7.5,50,130,2.6,0,0,0,0,0,0,0,0,0,0,0,0,0.322504
+8s,6.144,12,10,protocol,7.5,50,50,1,0,0,0,0,0,0,0,0,0,0,0,0,0.312415
+9s,6.144,12,10,protocol,7.5,50,42,0.84,0,0,0,0,0,0,0,0,0,0,0,0,0.30469
+10s,6.144,12,10,protocol,7.5,50,39,0.78,0,0,0,0,0,0,0,0,0,0,0,0,0.298585
+11s,6.144,12,10,protocol,7.5,50,41,0.82,0,0,0,0,0,0,0,0,0,0,0,0,0.293638
+12s,6.144,12,10,protocol,7.5,70,129,1.84286,0,0,0,0,0,0,0,0,0,0,0,0,0.288606
+13s,6.144,12,10,protocol,7.5,70,127,1.81429,0,0,0,0,0,0,0,0,0,0,0,0,0.295701
+14s,6.144,12,10,protocol,7.5,70,121,1.72857,0,0,0,0,0,0,0,0,0,0,0,0,0.29668
+15s,6.144,12,10,protocol,7.5,70,138,1.97143,0,0,0,0,0.425,0.2125,0.149123,0.121429,0.10625,0.10625,0.10625,0.10625,0.294522
+16s,6.144,12,10,protocol,7.5,70,146,2.08571,0,0,0,0,0.45,0.225,0.138462,0.128571,0.1125,0.1125,0.1125,0.1125,0.290833
+17s,6.144,12,10,protocol,7.5,70,178,2.54286,0,0,0,0.95,0.875,0.4375,0.25,0.25,0.236486,0.236486,0.236486,0.236486,0.290456
+18s,6.144,12,10,protocol,7.5,70,94,1.34286,0,0,0,0.823529,0.551724,0.275862,0.228571,0.228571,0.2,0.2,0.2,0.2,0.287585
+19s,6.144,12,10,protocol,7.5,70,97,1.38571,0,0,0,0.958333,0.625,0.333333,0.285714,0.285714,0.229885,0.229885,0.229885,0.229885,0.28501
+20s,6.144,12,10,protocol,7.5,70,110,1.57143,0,0,0,0.95,0.55,0.404412,0.392857,0.361842,0.275,0.275,0.275,0.275,0.282732
+21s,6.144,12,10,protocol,7.5,70,99,1.41429,0,0,0,0.882353,0.366667,0.314286,0.314286,0.244444,0.213592,0.213592,0.213592,0.213592,0.280702
+22s,7.168,14,10,protocol,7.5,90,168,1.86667,0,0,0,0.880952,0.441667,0.335443,0.243119,0.203846,0.165625,0.165625,0.165625,0.165625,0.279149
+23s,28.16,55,10,protocol,7.5,90,176,1.95556,0,0,0,0.966667,0.568627,0.391892,0.261261,0.207143,0.169591,0.169591,0.169591,0.169591,0.288404
+24s,8.192,16,10,protocol,7.5,90,174,1.93333,0,0,0,0.916667,0.55,0.34375,0.205224,0.196429,0.139594,0.139594,0.139594,0.139594,0.290564
+25s,8.192,16,10,protocol,7.5,90,192,2.13333,0,0,0,0.972222,0.5,0.315217,0.207143,0.189542,0.145,0.145,0.145,0.145,0.290828
+26s,8.192,16,10,protocol,7.5,90,172,1.91111,18,18,1,0.95,0.34127,0.215,0.15035,0.134375,0.103365,0.103365,0.103365,0.103365,0.289293
+27s,5.12,10,10,protocol,7.5,90,155,1.72222,20,20,1,1,0.41129,0.231818,0.161392,0.154545,0.115909,0.115909,0.115909,0.115909,0.293416
+28s,2.56,5,10,protocol,7.5,90,103,1.14444,20,20,1,0.95,0.448276,0.211382,0.159509,0.146067,0.115556,0.115556,0.115556,0.115556,0.300005
+29s,2.048,4,10,protocol,7.5,90,90,1,36,36,1,1,0.325758,0.160448,0.122159,0.114362,0.0942982,0.0942982,0.0942982,0.0942982,0.302936
+30s,2.048,4,10,protocol,7.5,90,97,1.07778,32,32,1,1,0.402985,0.189474,0.154286,0.135,0.117391,0.117391,0.117391,0.117391,0.30342
+31s,2.048,4,10,protocol,7.5,150,174,1.16,82,78,0.95122,0.898438,0.519403,0.270607,0.204225,0.150911,0.127941,0.127941,0.127941,0.127941,0.299332
+32s,2.048,4,10,protocol,7.5,170,260,1.52941,60,60,1,0.952381,0.614525,0.359477,0.250855,0.175719,0.145503,0.145503,0.145503,0.145503,0.295072
+33s,4.096,8,10,protocol,7.5,170,260,1.52941,48,48,1,0.967949,0.647059,0.365449,0.247191,0.169753,0.145889,0.145889,0.145889,0.145889,0.297876
+34s,4.096,8,10,protocol,7.5,170,266,1.56471,84,83,0.988095,0.96875,0.748344,0.377926,0.235908,0.17965,0.147231,0.147231,0.147231,0.147231,0.301967
+35s,4.096,8,10,protocol,7.5,170,227,1.33529,100,98,0.98,0.95,0.658451,0.2992,0.194387,0.153279,0.120026,0.120026,0.120026,0.120026,0.302316
+36s,4.096,8,10,protocol,7.5,170,220,1.29412,75,75,1,0.972222,0.608108,0.273556,0.181087,0.145631,0.114068,0.114068,0.114068,0.114068,0.302131
+37s,4.096,8,10,protocol,7.5,170,234,1.37647,20,20,1,0.944444,0.678322,0.282799,0.188533,0.15798,0.122475,0.122475,0.122475,0.122475,0.301825
+38s,4.096,8,10,protocol,7.5,170,197,1.15882,28,26,0.928571,0.865497,0.555233,0.27208,0.190239,0.147377,0.118929,0.118929,0.118929,0.118929,0.304629
+39s,4.096,8,10,protocol,7.5,170,204,1.2,46,46,1,0.943182,0.582857,0.289773,0.20218,0.155015,0.124012,0.124012,0.124012,0.124012,0.306547
+40s,4.096,8,10,protocol,7.5,170,203,1.19412,44,42,0.954545,0.910714,0.567039,0.279614,0.202595,0.152402,0.119552,0.119552,0.119552,0.119552,0.307128
+41s,4.096,8,10,protocol,7.5,170,218,1.28235,56,56,1,0.896552,0.57672,0.293011,0.212683,0.167178,0.122679,0.122679,0.122679,0.122679,0.307886
+42s,4.096,8,10,protocol,7.5,190,264,1.38947,44,44,1,0.886364,0.559633,0.335165,0.224265,0.165424,0.122244,0.122244,0.122244,0.122244,0.307462
+43s,4.096,8,10,protocol,7.5,190,275,1.44737,38,37,0.973684,0.882075,0.571749,0.342282,0.226465,0.166449,0.128788,0.128788,0.128788,0.128788,0.30707
+44s,2.048,4,10,protocol,7.5,190,267,1.40526,54,53,0.981481,0.911215,0.541667,0.335142,0.21441,0.159149,0.126278,0.126278,0.126278,0.126278,0.308744
+45s,5.12,10,10,protocol,7.5,190,265,1.39474,94,94,1,0.905738,0.575117,0.318182,0.197104,0.159091,0.123862,0.123862,0.123862,0.123862,0.311435
+46s,4.096,8,10,protocol,7.5,190,303,1.59474,100,100,1,0.934783,0.748677,0.345966,0.218702,0.181643,0.141429,0.141429,0.141429,0.141429,0.311726
+47s,3.072,6,10,protocol,7.5,190,315,1.65789,98,96,0.979592,0.950495,0.716707,0.354916,0.228043,0.184769,0.147557,0.147557,0.147557,0.147557,0.312118
+48s,2.048,4,10,protocol,7.5,190,314,1.65263,82,81,0.987805,0.938462,0.705479,0.361827,0.2472,0.195076,0.156535,0.156535,0.156535,0.156535,0.312867
+49s,2.048,4,10,protocol,7.5,190,304,1.6,78,78,1,0.939286,0.72381,0.341573,0.2375,0.195876,0.150198,0.150198,0.150198,0.150198,0.313679
+50s,2.048,4,10,protocol,7.5,190,291,1.53158,116,116,1,0.968,0.75,0.322616,0.215237,0.18256,0.141399,0.141399,0.141399,0.141399,0.314396
+51s,2.048,4,10,protocol,7.5,190,250,1.31579,114,113,0.991228,0.881356,0.651042,0.258264,0.18997,0.154321,0.121242,0.121242,0.121242,0.121242,0.31513
+52s,2.048,4,10,protocol,7.5,210,270,1.28571,106,106,1,0.934343,0.613636,0.262136,0.188811,0.147219,0.115286,0.115286,0.115286,0.115286,0.315656
+53s,4.096,8,10,protocol,7.5,210,259,1.23333,72,68,0.944444,0.803738,0.505859,0.251212,0.180111,0.136531,0.111446,0.111446,0.111446,0.111446,0.317535
+54s,2.56,5,10,protocol,7.5,210,269,1.28095,58,58,1,0.915179,0.511407,0.263209,0.181267,0.139018,0.116753,0.116753,0.116753,0.116753,0.318631
+55s,2.048,4,10,protocol,7.5,210,266,1.26667,112,112,1,0.960396,0.545082,0.255278,0.168782,0.138976,0.116974,0.116974,0.116974,0.116974,0.320319
+56s,2.048,4,10,protocol,7.5,210,254,1.20952,136,136,1,0.929245,0.51004,0.231541,0.164295,0.132568,0.111845,0.111845,0.111845,0.111845,0.320697
+57s,2.048,4,10,protocol,7.5,210,248,1.18095,92,92,1,0.864865,0.466165,0.222222,0.161774,0.124311,0.108772,0.108772,0.108772,0.108772,0.320714
+58s,2.048,4,10,protocol,7.5,210,278,1.32381,50,49,0.98,0.826271,0.477663,0.254113,0.186327,0.140404,0.1229,0.1229,0.1229,0.1229,0.320453
+59s,2.048,4,10,protocol,7.5,210,257,1.22381,64,60,0.9375,0.849057,0.422003,0.244297,0.177978,0.133299,0.112325,0.112325,0.112325,0.112325,0.319782
+60s,2.048,4,10,protocol,7.5,210,282,1.34286,112,110,0.982143,0.91,0.524164,0.259191,0.185771,0.148891,0.125668,0.125668,0.125668,0.125668,0.319017
+61s,2.048,4,10,protocol,7.5,210,257,1.22381,122,117,0.959016,0.870192,0.521298,0.243833,0.171333,0.138024,0.115766,0.115766,0.115766,0.115766,0.31925
+62s,2.048,4,10,protocol,7.5,210,298,1.41905,87,87,1,0.936364,0.600806,0.282197,0.20397,0.162664,0.131567,0.131567,0.131567,0.131567,0.318716
+63s,0,0,10,protocol,7.5,210,318,1.51429,94,94,1,0.949541,0.618677,0.309942,0.224576,0.172638,0.137722,0.137722,0.137722,0.137722,0.318456
+64s,0,0,10,protocol,7.5,210,289,1.37619,120,119,0.991667,0.941748,0.555769,0.282227,0.204965,0.15356,0.124784,0.124784,0.124784,0.124784,0.317438
+65s,0,0,10,protocol,7.5,210,251,1.19524,146,146,1,0.970588,0.494094,0.241346,0.187313,0.137309,0.113165,0.113165,0.113165,0.113165,0.316069
+66s,0,0,10,protocol,7.5,210,270,1.28571,124,122,0.983871,0.957143,0.567227,0.281837,0.205479,0.145161,0.121841,0.121841,0.121841,0.121841,0.314567
+67s,0,0,10,protocol,7.5,210,286,1.3619,126,124,0.984127,0.964602,0.518116,0.29668,0.22102,0.155435,0.128136,0.128136,0.128136,0.128136,0.313104
+68s,0,0,10,protocol,7.5,210,315,1.5,89,89,1,0.913793,0.530303,0.340173,0.235778,0.172131,0.144761,0.144761,0.144761,0.144761,0.31141
+69s,1.536,3,10,protocol,7.5,210,299,1.42381,108,108,1,0.959091,0.476115,0.340159,0.225831,0.173635,0.13678,0.13678,0.13678,0.13678,0.310055
+70s,2.048,4,10,protocol,7.5,210,282,1.34286,140,140,1,0.946602,0.482877,0.309211,0.217257,0.169675,0.13227,0.13227,0.13227,0.13227,0.30897
+71s,0,0,10,protocol,7.5,210,280,1.33333,126,126,1,0.965,0.482759,0.300429,0.215716,0.168675,0.133333,0.133333,0.133333,0.133333,0.308532
+72s,0,0,10,protocol,7.5,210,262,1.24762,111,109,0.981982,0.913043,0.450172,0.278723,0.197885,0.160736,0.125599,0.125599,0.125599,0.125599,0.308232
+73s,0,0,10,protocol,7.5,210,258,1.22857,114,114,1,0.979592,0.460714,0.270724,0.203791,0.155609,0.12274,0.12274,0.12274,0.12274,0.307448
+74s,0,0,10,protocol,7.5,210,234,1.11429,120,120,1,0.930108,0.404844,0.239264,0.182385,0.142596,0.111535,0.111535,0.111535,0.111535,0.306296
+75s,0,0,10,protocol,7.5,210,260,1.2381,134,131,0.977612,0.961111,0.481481,0.270833,0.210356,0.154394,0.125604,0.125604,0.125604,0.125604,0.305101
+76s,2.56,5,10,protocol,7.5,210,278,1.32381,122,122,1,0.97,0.534615,0.290795,0.228618,0.163337,0.13998,0.13998,0.13998,0.13998,0.305132
+77s,2.048,4,10,protocol,7.5,210,280,1.33333,140,140,1,0.957983,0.509091,0.301075,0.241379,0.167464,0.140704,0.140704,0.140704,0.140704,0.305119
+78s,4.608,9,10,protocol,7.5,210,299,1.42381,140,140,1,0.943182,0.605263,0.325,0.252534,0.180774,0.150251,0.150251,0.150251,0.150251,0.306116
+79s,4.096,8,10,protocol,7.5,210,353,1.68095,138,138,1,0.951389,0.645338,0.392222,0.310193,0.218441,0.177744,0.177744,0.177744,0.177744,0.305698
+80s,4.096,8,10,protocol,7.5,210,365,1.7381,160,160,1,0.943452,0.661232,0.419059,0.328829,0.229849,0.18453,0.18453,0.18453,0.18453,0.305105
+81s,4.096,8,10,protocol,7.5,210,461,2.19524,160,160,1,0.963277,0.886538,0.523864,0.430037,0.293631,0.237874,0.237874,0.237874,0.237874,0.304219
+82s,4.096,8,10,protocol,7.5,210,472,2.24762,188,188,1,0.954762,0.907692,0.536364,0.432234,0.297604,0.2423,0.2423,0.2423,0.2423,0.303461
+83s,4.096,8,10,protocol,7.5,210,472,2.24762,229,229,1,0.976562,0.907692,0.563919,0.449524,0.295,0.241556,0.241556,0.241556,0.241556,0.302695
+84s,4.096,8,10,protocol,7.5,210,455,2.16667,296,296,1,0.976316,0.853659,0.548193,0.44347,0.278117,0.237474,0.237474,0.237474,0.237474,0.301958
+85s,3.072,6,10,protocol,7.5,210,440,2.09524,308,308,1,0.997222,0.716612,0.522565,0.433071,0.26699,0.23085,0.23085,0.23085,0.23085,0.301345
+86s,4.096,8,10,protocol,7.5,210,437,2.08095,300,299,0.996667,0.983333,0.682813,0.536855,0.410714,0.269089,0.226895,0.226895,0.226895,0.226895,0.30074
+87s,4.096,8,10,protocol,7.5,210,433,2.0619,270,270,1,0.958101,0.634897,0.532595,0.377178,0.273877,0.224352,0.224352,0.224352,0.224352,0.300067
+88s,9.728,19,10,protocol,7.5,210,520,2.47619,260,260,1,0.969773,0.751445,0.642769,0.449827,0.325407,0.278373,0.278373,0.278373,0.278373,0.299938
+89s,10.24,20,10,protocol,7.5,210,527,2.50952,248,248,1,0.970588,0.777286,0.597506,0.471377,0.330615,0.286413,0.286413,0.286413,0.286413,0.299665
+90s,10.24,20,10,protocol,7.5,210,523,2.49048,272,272,1,0.969697,0.804615,0.577901,0.469479,0.329345,0.293161,0.293161,0.293161,0.293161,0.299178
+91s,20.48,40,10,protocol,7.5,210,515,2.45238,330,329,0.99697,0.982609,0.750729,0.574777,0.445502,0.327192,0.29328,0.29328,0.29328,0.29328,0.299275
+92s,26.624,52,10,protocol,7.5,210,543,2.58571,393,387,0.984733,0.972163,0.796188,0.596703,0.461735,0.355366,0.320543,0.320543,0.320543,0.320543,0.299542
+93s,12.288,24,10,protocol,7.5,210,588,2.8,400,394,0.985,0.981061,0.859649,0.65625,0.502135,0.392,0.344666,0.344666,0.344666,0.344666,0.299117
+94s,12.288,24,10,protocol,7.5,210,582,2.77143,400,400,1,0.978873,0.803867,0.661364,0.501724,0.387483,0.331058,0.331058,0.331058,0.331058,0.298717
+95s,12.288,24,10,protocol,7.5,210,594,2.82857,438,438,1,0.991379,0.762516,0.646355,0.525664,0.405184,0.340206,0.340206,0.340206,0.340206,0.298327
+96s,12.288,24,10,protocol,7.5,210,627,2.98571,500,500,1,0.984483,0.836,0.667021,0.579482,0.429452,0.360759,0.360759,0.360759,0.360759,0.29793
+97s,12.288,24,10,protocol,7.5,210,677,3.22381,532,532,1,0.985294,0.914865,0.714135,0.649712,0.468512,0.390427,0.390427,0.390427,0.390427,0.297732
+98s,10.752,21,10,protocol,7.5,210,675,3.21429,540,533,0.987037,0.985119,0.919619,0.709034,0.655977,0.46875,0.392442,0.392442,0.392442,0.392442,0.297871
+99s,10.24,20,10,protocol,7.5,210,659,3.1381,546,545,0.998168,0.974242,0.864829,0.701064,0.6361,0.454483,0.386737,0.386737,0.386737,0.386737,0.298272
+100s,10.24,20,10,protocol,7.5,210,658,3.13333,614,612,0.996743,0.984848,0.79661,0.706009,0.664646,0.450685,0.387059,0.387059,0.387059,0.387059,0.298303
+101s,10.24,20,10,protocol,7.5,210,696,3.31429,638,630,0.987461,0.984848,0.828571,0.790909,0.725,0.48468,0.409412,0.409412,0.409412,0.409412,0.297917
+102s,10.24,20,10,protocol,7.5,210,757,3.60476,620,620,1,1,0.918689,0.880233,0.788542,0.57089,0.454382,0.454382,0.454382,0.454382,0.297458
+103s,10.24,20,10,protocol,7.5,210,741,3.52857,620,591,0.953226,0.952632,0.903659,0.861628,0.786624,0.578906,0.441071,0.441071,0.441071,0.441071,0.297175
+104s,10.24,20,10,protocol,7.5,210,766,3.64762,622,614,0.987138,0.981481,0.934146,0.886574,0.814894,0.598437,0.440736,0.440736,0.440736,0.440736,0.296773
+105s,10.24,20,10,protocol,7.5,210,774,3.68571,676,676,1,0.997368,0.943902,0.897912,0.837662,0.613312,0.459347,0.459347,0.459347,0.459347,0.296448
+106s,8.192,16,10,protocol,7.5,210,751,3.57619,720,712,0.988889,0.986842,0.915854,0.875291,0.816304,0.605645,0.46646,0.46646,0.46646,0.46646,0.296486
+107s,8.192,16,10,protocol,7.5,210,766,3.64762,720,713,0.990278,0.982895,0.945679,0.911905,0.841758,0.608903,0.510667,0.510667,0.510667,0.510667,0.296448
+108s,8.192,16,10,protocol,7.5,210,760,3.61905,720,703,0.976389,0.975,0.95,0.904762,0.859729,0.572289,0.523416,0.523416,0.523416,0.523416,0.296214
+109s,8.192,16,10,protocol,7.5,210,779,3.70952,736,736,1,0.998715,0.97375,0.927381,0.865556,0.573638,0.531378,0.531378,0.531378,0.531378,0.296013
+110s,8.192,16,10,protocol,7.5,210,762,3.62857,740,723,0.977027,0.976316,0.9525,0.922518,0.852349,0.566122,0.492885,0.492885,0.492885,0.492885,0.295555
+111s,8.192,16,10,protocol,7.5,210,762,3.62857,740,731,0.987838,0.988158,0.9525,0.929268,0.858108,0.568657,0.489089,0.489089,0.489089,0.489089,0.295092
+112s,8.192,16,10,protocol,7.5,210,760,3.61905,740,740,1,1,0.95,0.92233,0.83151,0.562963,0.493506,0.493506,0.493506,0.493506,0.294783
+113s,8.192,16,10,protocol,7.5,210,760,3.61905,748,748,1,1,0.95,0.902613,0.764588,0.55434,0.5,0.5,0.5,0.5,0.294569
+114s,8.192,16,10,protocol,7.5,210,753,3.58571,760,753,0.990789,0.990789,0.94125,0.875581,0.753,0.525105,0.490874,0.490874,0.490874,0.490874,0.294852
+115s,8.192,16,10,protocol,7.5,210,760,3.61905,760,760,1,1,0.95,0.865604,0.76,0.519481,0.493506,0.493506,0.493506,0.493506,0.294448
+116s,8.192,16,10,protocol,7.5,210,760,3.61905,760,760,1,1,0.95,0.785124,0.76,0.521978,0.493506,0.493506,0.493506,0.493506,0.294031
+117s,8.192,16,10,protocol,7.5,210,760,3.61905,760,760,1,1,0.95,0.76,0.759241,0.527778,0.493506,0.493506,0.493506,0.493506,0.2936
+118s,8.192,16,10,protocol,7.5,210,760,3.61905,760,760,1,1,0.945274,0.76,0.7393,0.527778,0.496084,0.496084,0.496084,0.496084,0.293408
+119s,8.192,16,10,protocol,7.5,210,760,3.61905,760,760,1,1,0.843507,0.76,0.730769,0.524862,0.5,0.5,0.5,0.5,0.293171
+120s,10.24,20,10,protocol,7.5,210,769,3.6619,760,759,0.998684,0.998684,0.801042,0.769,0.739423,0.526712,0.518194,0.518194,0.518194,0.518194,0.29322
+121s,10.24,20,10,protocol,7.5,210,855,4.07143,760,752,0.989474,0.989529,0.890625,0.851594,0.822115,0.585616,0.578484,0.578484,0.578484,0.578484,0.292953
+122s,10.24,20,10,protocol,7.5,210,885,4.21429,746,718,0.962466,0.964539,0.921875,0.869352,0.850962,0.606164,0.567672,0.567672,0.567672,0.567672,0.292796
+123s,10.24,20,10,protocol,7.5,210,918,4.37143,740,740,1,0.998889,0.95625,0.927273,0.882692,0.628767,0.581013,0.581013,0.581013,0.581013,0.292499
+124s,10.24,20,10,protocol,7.5,210,912,4.34286,744,738,0.991935,0.991111,0.95,0.930612,0.876923,0.624658,0.575758,0.575758,0.575758,0.575758,0.292174
+125s,10.24,20,10,protocol,7.5,210,917,4.36667,820,820,1,0.997778,0.953222,0.935714,0.881731,0.628082,0.563961,0.563961,0.563961,0.563961,0.292033
+126s,10.24,20,10,protocol,7.5,210,916,4.3619,860,860,1,0.995556,0.934694,0.934694,0.880769,0.636996,0.540094,0.540094,0.540094,0.540094,0.291777
+127s,10.24,20,10,protocol,7.5,210,929,4.42381,850,850,1,0.997778,0.947959,0.947959,0.901942,0.669308,0.540116,0.540116,0.540116,0.540116,0.291478
+128s,10.24,20,10,protocol,7.5,210,950,4.52381,860,852,0.990698,0.989842,0.969388,0.969388,0.931373,0.71644,0.552326,0.552326,0.552326,0.552326,0.291288
+129s,10.24,20,10,protocol,7.5,210,955,4.54762,860,860,1,0.997773,0.97449,0.96856,0.936275,0.734615,0.555233,0.555233,0.555233,0.555233,0.291216
+130s,10.24,20,10,protocol,7.5,210,939,4.47143,860,851,0.989535,0.99,0.958163,0.920588,0.920588,0.718989,0.54593,0.54593,0.54593,0.54593,0.291072
+131s,10.24,20,10,protocol,7.5,210,937,4.4619,868,868,1,1,0.956122,0.918627,0.918627,0.661723,0.544767,0.544767,0.544767,0.544767,0.290903
+132s,10.24,20,10,protocol,7.5,210,940,4.47619,880,880,1,1,0.959184,0.921569,0.921569,0.652778,0.546512,0.546512,0.546512,0.546512,0.290643
+133s,10.24,20,10,protocol,7.5,210,917,4.36667,880,859,0.976136,0.976136,0.953222,0.89902,0.89902,0.636806,0.53314,0.53314,0.53314,0.53314,0.29054
+134s,10.24,20,10,protocol,7.5,210,936,4.45714,880,880,1,1,0.975,0.917647,0.917647,0.65,0.546729,0.546729,0.546729,0.546729,0.290271
+135s,10.24,20,10,protocol,7.5,210,928,4.41905,880,872,0.990909,0.990909,0.95082,0.909804,0.895753,0.644444,0.564134,0.564134,0.564134,0.564134,0.290014
+136s,10.24,20,10,protocol,7.5,210,911,4.3381,880,873,0.992045,0.992045,0.929592,0.893137,0.834249,0.632639,0.575126,0.575126,0.575126,0.575126,0.289779
+137s,9.728,19,10,protocol,7.5,210,917,4.36667,880,880,1,1,0.935714,0.89902,0.833636,0.636806,0.58038,0.58038,0.58038,0.58038,0.289602
+138s,10.752,21,10,protocol,7.5,210,930,4.42857,874,874,1,1,0.94898,0.911765,0.845455,0.645833,0.588608,0.588608,0.588608,0.588608,0.289536
+139s,10.24,20,10,protocol,7.5,210,930,4.42857,860,853,0.99186,0.99,0.952869,0.911765,0.845455,0.645833,0.585642,0.585642,0.585642,0.585642,0.289778
+140s,10.24,20,10,protocol,7.5,210,929,4.42381,852,845,0.991784,0.98913,0.947959,0.910784,0.871482,0.645139,0.580625,0.580625,0.580625,0.580625,0.289684
+141s,10.24,20,10,protocol,7.5,210,954,4.54286,840,840,1,0.996739,0.973469,0.935294,0.917308,0.6625,0.594022,0.594022,0.594022,0.594022,0.289489
+142s,10.24,20,10,protocol,7.5,210,933,4.44286,840,819,0.975,0.971154,0.952041,0.914706,0.907588,0.647917,0.545614,0.545614,0.545614,0.545614,0.289236
+143s,10.24,20,10,protocol,7.5,210,948,4.51429,858,850,0.990676,0.987069,0.967347,0.929412,0.929412,0.658333,0.538636,0.538636,0.538636,0.538636,0.289096
+144s,10.24,20,10,protocol,7.5,210,958,4.5619,880,880,1,1,0.977551,0.958,0.939216,0.664355,0.538202,0.538202,0.538202,0.538202,0.288878
+145s,10.24,20,10,protocol,7.5,210,931,4.43333,898,890,0.991091,0.991111,0.95,0.931,0.912745,0.632473,0.523034,0.523034,0.523034,0.523034,0.288636
+146s,10.24,20,10,protocol,7.5,210,911,4.3381,900,892,0.991111,0.991111,0.929592,0.911,0.893137,0.584349,0.511798,0.511798,0.511798,0.511798,0.288422
+147s,10.24,20,10,protocol,7.5,210,919,4.37619,900,900,1,1,0.937755,0.919,0.90098,0.560366,0.516292,0.516292,0.516292,0.516292,0.288213
+148s,10.24,20,10,protocol,7.5,210,892,4.24762,900,873,0.97,0.97,0.910204,0.892,0.87451,0.543902,0.501124,0.501124,0.501124,0.501124,0.287983
+149s,10.24,20,10,protocol,7.5,210,912,4.34286,900,893,0.992222,0.992222,0.942149,0.912,0.894118,0.556098,0.51236,0.51236,0.51236,0.51236,0.287834
+150s,10.24,20,10,protocol,7.5,210,919,4.37619,900,900,1,1,0.957292,0.919,0.90098,0.560366,0.516292,0.516292,0.516292,0.516292,0.287885
+151s,10.24,20,10,protocol,7.5,210,903,4.3,900,884,0.982222,0.982222,0.940625,0.903,0.885294,0.556034,0.507303,0.507303,0.507303,0.507303,0.28795
+152s,10.24,20,10,protocol,7.5,210,920,4.38095,900,900,1,1,0.944559,0.92,0.901961,0.594315,0.516854,0.516854,0.516854,0.516854,0.287727
+153s,10.24,20,10,protocol,7.5,210,901,4.29048,890,873,0.980899,0.981111,0.923156,0.901,0.878168,0.599069,0.50618,0.50618,0.50618,0.50618,0.287524
+154s,10.24,20,10,protocol,7.5,210,920,4.38095,868,868,1,1,0.958333,0.92,0.884615,0.613333,0.516854,0.516854,0.516854,0.516854,0.287379
+155s,10.24,20,10,protocol,7.5,210,911,4.3381,860,852,0.990698,0.991111,0.948958,0.911,0.875962,0.607333,0.506111,0.506111,0.506111,0.506111,0.287228
+156s,10.24,20,10,protocol,7.5,210,898,4.27619,860,841,0.977907,0.975556,0.935417,0.898,0.863462,0.598667,0.507345,0.507345,0.507345,0.507345,0.287155
+157s,10.24,20,10,protocol,7.5,210,919,4.37619,860,860,1,1,0.957292,0.919,0.883654,0.612667,0.543144,0.543144,0.543144,0.543144,0.286991
+158s,10.24,20,10,protocol,7.5,210,918,4.37143,860,860,1,0.998861,0.95625,0.918,0.882692,0.612,0.551351,0.551351,0.551351,0.551351,0.286809
+159s,10.24,20,10,protocol,7.5,210,891,4.24286,860,843,0.980233,0.980233,0.928125,0.891,0.856731,0.594,0.536747,0.536747,0.536747,0.536747,0.286606
+160s,10.24,20,10,protocol,7.5,210,890,4.2381,860,858,0.997674,0.997674,0.927083,0.89,0.855769,0.593333,0.536145,0.536145,0.536145,0.536145,0.286539
+161s,10.24,20,10,protocol,7.5,210,870,4.14286,860,850,0.988372,0.988372,0.90625,0.852941,0.836538,0.573879,0.522523,0.522523,0.522523,0.522523,0.286504
+162s,10.24,20,10,protocol,7.5,210,877,4.17619,860,860,1,1,0.929025,0.859804,0.843269,0.576974,0.522024,0.522024,0.522024,0.522024,0.286411
+163s,10.24,20,10,protocol,7.5,210,880,4.19048,860,860,1,1,0.952381,0.862745,0.846154,0.578947,0.52381,0.52381,0.52381,0.52381,0.286288
+164s,10.24,20,10,protocol,7.5,210,879,4.18571,860,860,1,1,0.955435,0.861765,0.845192,0.578289,0.523214,0.523214,0.523214,0.523214,0.286189
+165s,10.24,20,10,protocol,7.5,210,874,4.1619,860,854,0.993023,0.993023,0.95,0.860236,0.840385,0.575,0.520238,0.520238,0.520238,0.520238,0.286025
+166s,10.24,20,10,protocol,7.5,210,880,4.19048,860,860,1,1,0.956522,0.888889,0.846154,0.578947,0.52381,0.52381,0.52381,0.52381,0.285998
+167s,10.24,20,10,protocol,7.5,210,880,4.19048,860,860,1,1,0.956522,0.916667,0.846154,0.571429,0.52381,0.52381,0.52381,0.52381,0.285832
+168s,10.24,20,10,protocol,7.5,210,867,4.12857,860,848,0.986047,0.986047,0.942391,0.903125,0.833654,0.562987,0.516071,0.516071,0.516071,0.516071,0.286138
+169s,10.24,20,10,protocol,7.5,210,870,4.14286,860,852,0.990698,0.990698,0.945652,0.90625,0.834132,0.564935,0.517857,0.517857,0.517857,0.517857,0.285961
+170s,10.24,20,10,protocol,7.5,210,871,4.14762,860,851,0.989535,0.989535,0.946739,0.907292,0.846453,0.565584,0.518452,0.518452,0.518452,0.518452,0.28586
+171s,10.24,20,10,protocol,7.5,210,868,4.13333,860,852,0.990698,0.990698,0.943478,0.915612,0.861111,0.563636,0.516667,0.516667,0.516667,0.516667,0.285848
+172s,10.24,20,10,protocol,7.5,210,870,4.14286,860,852,0.990698,0.990698,0.945652,0.925532,0.852941,0.56567,0.517857,0.517857,0.517857,0.517857,0.28584
+173s,10.24,20,10,protocol,7.5,210,875,4.16667,860,860,1,1,0.951087,0.930851,0.857843,0.576416,0.520833,0.520833,0.520833,0.520833,0.285669
